_id,rank,won,lost,streak,ordinal_rank,first_name,last_name,team_id,games_back,points_for,points_against,home_won,home_lost,away_won,away_lost,conference_won,conference_lost,division_won,division_lost,last_five,last_ten,conference,division,points_scored_per_game,points_allowed_per_game,win_percentage,point_differential,point_differential_per_game,streak_type,streak_total,games_played,date_of_standing,standing_date_uid
5f20b182d24e6d64f0f69562,1,2,1,W1,1st,Cleveland,Indians,cleveland-indians,0,13,5,2,1,0,0,2,1,2,1,2-1,2-1,AL,C,4.3,1.7,.667,8,2.7,win,1,3,20200628,cleveland-indians_20200628
5f20b182d24e6d64f0f69563,1,2,1,W1,1st,Minnesota,Twins,minnesota-twins,0,27,17,0,0,2,1,2,1,2,1,2-1,2-1,AL,C,9.0,5.7,.667,10,3.3,win,1,3,20200628,minnesota-twins_20200628
5f20b182d24e6d64f0f69564,3,2,2,W1,3rd,Kansas City,Royals,kansas-city-royals,0.5,19,19,0,0,2,2,2,2,2,2,2-2,2-2,AL,C,4.8,4.8,.500,0,0.0,win,1,4,20200628,kansas-city-royals_20200628
5f20b182d24e6d64f0f69565,3,2,2,L1,3rd,Detroit,Tigers,detroit-tigers,0.5,16,27,0,1,2,1,0,1,0,1,2-2,2-2,AL,C,4.0,6.8,.500,-11,-2.8,loss,1,4,20200628,detroit-tigers_20200628
5f20b182d24e6d64f0f69566,5,1,2,L1,5th,Chicago,White Sox,chicago-white-sox,1,17,27,1,2,0,0,1,2,1,2,1-2,1-2,AL,C,5.7,9.0,.333,-10,-3.3,loss,1,3,20200628,chicago-white-sox_20200628
5f20b182d24e6d64f0f69567,1,3,1,W3,1st,Tampa Bay,Rays,tampa-bay-rays,0,28,17,3,1,0,0,2,1,2,1,3-1,3-1,AL,E,7.0,4.2,.750,11,2.8,win,3,4,20200628,tampa-bay-rays_20200628
5f20b182d24e6d64f0f69568,2,2,1,W1,2nd,New York,Yankees,new-york-yankees,0.5,9,12,0,0,2,1,0,0,0,0,2-1,2-1,AL,E,3.0,4.0,.667,-3,-1.0,win,1,3,20200628,new-york-yankees_20200628
5f20b182d24e6d64f0f69569,2,2,1,W2,2nd,Baltimore,Orioles,baltimore-orioles,0.5,16,19,0,0,2,1,2,1,2,1,2-1,2-1,AL,E,5.3,6.3,.667,-3,-1.0,win,2,3,20200628,baltimore-orioles_20200628
5f20b182d24e6d64f0f6956a,4,2,2,W1,4th,Toronto,Blue Jays,toronto-blue-jays,1,16,15,0,0,2,2,1,2,1,2,2-2,2-2,AL,E,4.0,3.8,.500,1,0.2,win,1,4,20200628,toronto-blue-jays_20200628
5f20b182d24e6d64f0f6956b,5,1,3,L3,5th,Boston,Red Sox,boston-red-sox,2,23,23,1,3,0,0,1,2,1,2,1-3,1-3,AL,E,5.8,5.8,.250,0,0.0,loss,3,4,20200628,boston-red-sox_20200628
5f20b182d24e6d64f0f6956c,1,3,1,W2,1st,Oakland,Athletics,oakland-athletics,0,17,11,3,1,0,0,3,1,3,1,3-1,3-1,AL,W,4.2,2.8,.750,6,1.5,win,2,4,20200628,oakland-athletics_20200628
5f20b182d24e6d64f0f6956d,1,3,1,W1,1st,Houston,Astros,houston-astros,0,29,16,3,1,0,0,3,1,3,1,3-1,3-1,AL,W,7.2,4.0,.750,13,3.2,win,1,4,20200628,houston-astros_20200628
5f20b182d24e6d64f0f6956e,3,1,2,L2,3rd,Texas,Rangers,texas-rangers,1.5,5,8,1,2,0,0,0,0,0,0,1-2,1-2,AL,W,1.7,2.7,.333,-3,-1.0,loss,2,3,20200628,texas-rangers_20200628
5f20b182d24e6d64f0f6956f,4,1,3,L1,4th,Seattle,Mariners,seattle-mariners,2,16,29,0,0,1,3,1,3,1,3,1-3,1-3,AL,W,4.0,7.2,.250,-13,-3.2,loss,1,4,20200628,seattle-mariners_20200628
5f20b182d24e6d64f0f69570,4,1,3,L2,4th,Los Angeles,Angels,los-angeles-angels,2,11,17,0,0,1,3,1,3,1,3,1-3,1-3,AL,W,2.8,4.2,.250,-6,-1.5,loss,2,4,20200628,los-angeles-angels_20200628
5f20b182d24e6d64f0f69571,1,3,1,W2,1st,Chicago,Cubs,chicago-cubs,0,23,16,2,1,1,0,3,1,3,1,3-1,3-1,NL,C,5.8,4.0,.750,7,1.8,win,2,4,20200628,chicago-cubs_20200628
5f20b182d24e6d64f0f69572,2,2,1,L1,2nd,St. Louis,Cardinals,st-louis-cardinals,0.5,15,10,2,1,0,0,2,1,2,1,2-1,2-1,NL,C,5.0,3.3,.667,5,1.7,loss,1,3,20200628,st-louis-cardinals_20200628
5f20b182d24e6d64f0f69573,3,2,2,W1,3rd,Milwaukee,Brewers,milwaukee-brewers,1,15,20,0,0,2,2,2,2,2,2,2-2,2-2,NL,C,3.8,5.0,.500,-5,-1.2,win,1,4,20200628,milwaukee-brewers_20200628
5f20b182d24e6d64f0f69574,4,1,3,L3,4th,Cincinnati,Reds,cincinnati-reds,2,20,18,1,3,0,0,0,1,0,1,1-3,1-3,NL,C,5.0,4.5,.250,2,0.5,loss,3,4,20200628,cincinnati-reds_20200628
5f20b182d24e6d64f0f69575,4,1,3,L1,4th,Pittsburgh,Pirates,pittsburgh-pirates,2,15,21,0,1,1,2,1,3,1,3,1-3,1-3,NL,C,3.8,5.2,.250,-6,-1.5,loss,1,4,20200628,pittsburgh-pirates_20200628
5f20b182d24e6d64f0f69576,1,2,1,W1,1st,Miami,Marlins,miami-marlins,0,17,15,0,0,2,1,2,1,2,1,2-1,2-1,NL,E,5.7,5.0,.667,2,0.7,win,1,3,20200628,miami-marlins_20200628
5f20b182d24e6d64f0f69577,2,2,2,W1,2nd,New York,Mets,new-york-mets,0.5,12,23,1,2,1,0,1,2,1,2,2-2,2-2,NL,E,3.0,5.8,.500,-11,-2.8,win,1,4,20200628,new-york-mets_20200628
5f20b182d24e6d64f0f69578,2,2,2,L1,2nd,Atlanta,Braves,atlanta-braves,0.5,24,19,0,0,2,2,2,1,2,1,2-2,2-2,NL,E,6.0,4.8,.500,5,1.2,loss,1,4,20200628,atlanta-braves_20200628
5f20b182d24e6d64f0f69579,4,1,2,L1,4th,Philadelphia,Phillies,philadelphia-phillies,1,15,17,1,2,0,0,1,2,1,2,1-2,1-2,NL,E,5.0,5.7,.333,-2,-0.7,loss,1,3,20200628,philadelphia-phillies_20200628
5f20b182d24e6d64f0f6957a,5,1,3,L2,5th,Washington,Nationals,washington-nationals,1.5,13,13,1,3,0,0,0,0,0,0,1-3,1-3,NL,E,3.2,3.2,.250,0,0.0,loss,2,4,20200628,washington-nationals_20200628
5f20b182d24e6d64f0f6957b,1,3,1,W1,1st,San Diego,Padres,san-diego-padres,0,21,9,3,1,0,0,3,1,3,1,3-1,3-1,NL,W,5.2,2.2,.750,12,3.0,win,1,4,20200628,san-diego-padres_20200628
5f20b182d24e6d64f0f6957c,2,2,1,W2,2nd,Colorado,Rockies,colorado-rockies,0.5,8,5,0,0,2,1,0,0,0,0,2-1,2-1,NL,W,2.7,1.7,.667,3,1.0,win,2,3,20200628,colorado-rockies_20200628
5f20b182d24e6d64f0f6957d,3,2,2,W2,3rd,San Francisco,Giants,san-francisco-giants,1,10,22,0,0,2,2,2,2,2,2,2-2,2-2,NL,W,2.5,5.5,.500,-12,-3.0,win,2,4,20200628,san-francisco-giants_20200628
5f20b182d24e6d64f0f6957e,3,2,2,L2,3rd,Los Angeles,Dodgers,los-angeles-dodgers,1,22,10,2,2,0,0,2,2,2,2,2-2,2-2,NL,W,5.5,2.5,.500,12,3.0,loss,2,4,20200628,los-angeles-dodgers_20200628
5f20b182d24e6d64f0f6957f,5,1,3,L1,5th,Arizona,Diamondbacks,arizona-diamondbacks,2,9,21,0,0,1,3,1,3,1,3,1-3,1-3,NL,W,2.2,5.2,.250,-12,-3.0,loss,1,4,20200628,arizona-diamondbacks_20200628