rank,won,lost,streak,ordinal_rank,first_name,last_name,team_id,games_back,points_for,points_against,home_won,home_lost,away_won,away_lost,conference_won,conference_lost,division_won,division_lost,last_five,last_ten,conference,division,points_scored_per_game,points_allowed_per_game,win_percentage,point_differential,point_differential_per_game,streak_type,streak_total,games_played,date_of_standing,standing_date_uid
1,0,0,W1,1st,Cleveland,Indians,cleveland-indians,0,0,0,1,0,0,0,1,0,0,0,0-0,0-0,AL,C,0,0,0,0,0,win,0,0,20200624,cleveland-indians_20200624
1,0,0,W1,1st,Minnesota,Twins,minnesota-twins,0,0,0,0,0,0,0,0,0,0,0,0-0,0-0,AL,C,0,0,0,0,0,win,0,0,20200624,minnesota-twins_20200624
1,0,0,W1,1st,Chicago,White Sox,chicago-white-sox,0,0,0,-1,0,0,0,-1,0,0,0,0-0,0-0,AL,C,0,0,0,0,0,win,0,0,20200624,chicago-white-sox_20200624
1,0,0,W1,1st,Detroit,Tigers,detroit-tigers,0,0,0,-2,0,0,0,-2,0,0,0,0-0,0-0,AL,C,0,0,0,0,0,win,0,0,20200624,detroit-tigers_20200624
1,0,0,W1,1st,Kansas City,Royals,kansas-city-royals,0,0,0,-3,0,0,0,-3,0,0,0,0-0,0-0,AL,C,0,0,0,0,0,win,0,0,20200624,kansas-city-royals_20200624
1,0,0,W1,1st,Toronto,Blue Jays,toronto-blue-jays,0,0,0,-4,0,0,0,-4,0,0,0,0-0,0-0,AL,E,0,0,0,0,0,win,0,0,20200624,toronto-blue-jays_20200624
1,0,0,W1,1st,New York,Yankees,new-york-yankees,0,0,0,-5,0,0,0,-5,0,0,0,0-0,0-0,AL,E,0,0,0,0,0,win,0,0,20200624,new-york-yankees_20200624
1,0,0,W1,1st,Boston,Red Sox,boston-red-sox,0,0,0,-6,0,0,0,-6,0,0,0,0-0,0-0,AL,E,0,0,0,0,0,win,0,0,20200624,boston-red-sox_20200624
1,0,0,W1,1st,Baltimore,Orioles,baltimore-orioles,0,0,0,-7,0,0,0,-7,0,0,0,0-0,0-0,AL,E,0,0,0,0,0,win,0,0,20200624,baltimore-orioles_20200624
1,0,0,W1,1st,Tampa Bay,Rays,tampa-bay-rays,0,0,0,-8,0,0,0,-8,0,0,0,0-0,0-0,AL,E,0,0,0,0,0,win,0,0,20200624,tampa-bay-rays_20200624
1,0,0,W1,1st,Texas,Rangers,texas-rangers,0,0,0,-9,0,0,0,-9,0,0,0,0-0,0-0,AL,W,0,0,0,0,0,win,0,0,20200624,texas-rangers_20200624
1,0,0,W1,1st,Oakland,Athletics,oakland-athletics,0,0,0,-10,0,0,0,-10,0,0,0,0-0,0-0,AL,W,0,0,0,0,0,win,0,0,20200624,oakland-athletics_20200624
1,0,0,W1,1st,Houston,Astros,houston-astros,0,0,0,-11,0,0,0,-11,0,0,0,0-0,0-0,AL,W,0,0,0,0,0,win,0,0,20200624,houston-astros_20200624
1,0,0,W1,1st,Seattle,Mariners,seattle-mariners,0,0,0,-12,0,0,0,-12,0,0,0,0-0,0-0,AL,W,0,0,0,0,0,win,0,0,20200624,seattle-mariners_20200624
1,0,0,W1,1st,Los Angeles,Angels,los-angeles-angels,0,0,0,-13,0,0,0,-13,0,0,0,0-0,0-0,AL,W,0,0,0,0,0,win,0,0,20200624,los-angeles-angels_20200624
1,0,0,W1,1st,Cincinnati,Reds,cincinnati-reds,0,0,0,-14,0,0,0,-14,0,0,0,0-0,0-0,NL,C,0,0,0,0,0,win,0,0,20200624,cincinnati-reds_20200624
1,0,0,W1,1st,St. Louis,Cardinals,st-louis-cardinals,0,0,0,-15,0,0,0,-15,0,0,0,0-0,0-0,NL,C,0,0,0,0,0,win,0,0,20200624,st-louis-cardinals_20200624
1,0,0,W1,1st,Chicago,Cubs,chicago-cubs,0,0,0,-16,0,0,0,-16,0,0,0,0-0,0-0,NL,C,0,0,0,0,0,win,0,0,20200624,chicago-cubs_20200624
1,0,0,W1,1st,Pittsburgh,Pirates,pittsburgh-pirates,0,0,0,-17,0,0,0,-17,0,0,0,0-0,0-0,NL,C,0,0,0,0,0,win,0,0,20200624,pittsburgh-pirates_20200624
1,0,0,W1,1st,Milwaukee,Brewers,milwaukee-brewers,0,0,0,-18,0,0,0,-18,0,0,0,0-0,0-0,NL,C,0,0,0,0,0,win,0,0,20200624,milwaukee-brewers_20200624
1,0,0,W1,1st,Miami,Marlins,miami-marlins,0,0,0,-19,0,0,0,-19,0,0,0,0-0,0-0,NL,E,0,0,0,0,0,win,0,0,20200624,miami-marlins_20200624
1,0,0,W1,1st,New York,Mets,new-york-mets,0,0,0,-20,0,0,0,-20,0,0,0,0-0,0-0,NL,E,0,0,0,0,0,win,0,0,20200624,new-york-mets_20200624
1,0,0,W1,1st,Washington,Nationals,washington-nationals,0,0,0,-21,0,0,0,-21,0,0,0,0-0,0-0,NL,E,0,0,0,0,0,win,0,0,20200624,washington-nationals_20200624
1,0,0,W1,1st,Atlanta,Braves,atlanta-braves,0,0,0,-22,0,0,0,-22,0,0,0,0-0,0-0,NL,E,0,0,0,0,0,win,0,0,20200624,atlanta-braves_20200624
1,0,0,W1,1st,Philadelphia,Phillies,philadelphia-phillies,0,0,0,-23,0,0,0,-23,0,0,0,0-0,0-0,NL,E,0,0,0,0,0,win,0,0,20200624,philadelphia-phillies_20200624
1,0,0,W1,1st,Los Angeles,Dodgers,los-angeles-dodgers,0,0,0,-24,0,0,0,-24,0,0,0,0-0,0-0,NL,W,0,0,0,0,0,win,0,0,20200624,los-angeles-dodgers_20200624
1,0,0,W1,1st,San Diego,Padres,san-diego-padres,0,0,0,-25,0,0,0,-25,0,0,0,0-0,0-0,NL,W,0,0,0,0,0,win,0,0,20200624,san-diego-padres_20200624
1,0,0,W1,1st,Colorado,Rockies,colorado-rockies,0,0,0,-26,0,0,0,-26,0,0,0,0-0,0-0,NL,W,0,0,0,0,0,win,0,0,20200624,colorado-rockies_20200624
1,0,0,W1,1st,Arizona,Diamondbacks,arizona-diamondbacks,0,0,0,-27,0,0,0,-27,0,0,0,0-0,0-0,NL,W,0,0,0,0,0,win,0,0,20200624,arizona-diamondbacks_20200624
1,0,0,W1,1st,San Francisco,Giants,san-francisco-giants,0,0,0,-28,0,0,0,-28,0,0,0,0-0,0-0,NL,W,0,0,0,0,0,win,0,0,20200624,san-francisco-giants_20200624
