_id__$oid,rank,won,lost,streak,ordinal_rank,first_name,last_name,team_id,games_back,points_for,points_against,home_won,home_lost,away_won,away_lost,conference_won,conference_lost,division_won,division_lost,last_five,last_ten,conference,division,points_scored_per_game,points_allowed_per_game,win_percentage,point_differential,point_differential_per_game,streak_type,streak_total,games_played,date_of_standing,standing_date_uid
5f23631fbd19d33ee4acd5aa,1,0,0,W1,1st,Arizona,Diamondbacks,arizona-diamondbacks,0,0,0,-27,0,0,0,-27,0,0,0,0-0,0-0,NL,W,0,0,0,0,0,win,0,0,20200724,arizona-diamondbacks_20200724
5f23631fbd19d33ee4acd5a5,1,0,0,W1,1st,Atlanta,Braves,atlanta-braves,0,0,0,-22,0,0,0,-22,0,0,0,0-0,0-0,NL,E,0,0,0,0,0,win,0,0,20200724,atlanta-braves_20200724
5f23631fbd19d33ee4acd596,1,0,0,W1,1st,Baltimore,Orioles,baltimore-orioles,0,0,0,-7,0,0,0,-7,0,0,0,0-0,0-0,AL,E,0,0,0,0,0,win,0,0,20200724,baltimore-orioles_20200724
5f23631fbd19d33ee4acd595,1,0,0,W1,1st,Boston,Red Sox,boston-red-sox,0,0,0,-6,0,0,0,-6,0,0,0,0-0,0-0,AL,E,0,0,0,0,0,win,0,0,20200724,boston-red-sox_20200724
5f23631fbd19d33ee4acd59f,1,0,0,W1,1st,Chicago,Cubs,chicago-cubs,0,0,0,-16,0,0,0,-16,0,0,0,0-0,0-0,NL,C,0,0,0,0,0,win,0,0,20200724,chicago-cubs_20200724
5f23631fbd19d33ee4acd590,1,0,0,W1,1st,Chicago,White Sox,chicago-white-sox,0,0,0,-1,0,0,0,-1,0,0,0,0-0,0-0,AL,C,0,0,0,0,0,win,0,0,20200724,chicago-white-sox_20200724
5f23631fbd19d33ee4acd59d,1,0,0,W1,1st,Cincinnati,Reds,cincinnati-reds,0,0,0,-14,0,0,0,-14,0,0,0,0-0,0-0,NL,C,0,0,0,0,0,win,0,0,20200724,cincinnati-reds_20200724
5f23631fbd19d33ee4acd58e,1,0,0,W1,1st,Cleveland,Indians,cleveland-indians,0,0,0,1,0,0,0,1,0,0,0,0-0,0-0,AL,C,0,0,0,0,0,win,0,0,20200724,cleveland-indians_20200724
5f23631fbd19d33ee4acd5a9,1,0,0,W1,1st,Colorado,Rockies,colorado-rockies,0,0,0,-26,0,0,0,-26,0,0,0,0-0,0-0,NL,W,0,0,0,0,0,win,0,0,20200724,colorado-rockies_20200724
5f23631fbd19d33ee4acd591,1,0,0,W1,1st,Detroit,Tigers,detroit-tigers,0,0,0,-2,0,0,0,-2,0,0,0,0-0,0-0,AL,C,0,0,0,0,0,win,0,0,20200724,detroit-tigers_20200724
5f23631fbd19d33ee4acd59a,1,0,0,W1,1st,Houston,Astros,houston-astros,0,0,0,-11,0,0,0,-11,0,0,0,0-0,0-0,AL,W,0,0,0,0,0,win,0,0,20200724,houston-astros_20200724
5f23631fbd19d33ee4acd592,1,0,0,W1,1st,Kansas City,Royals,kansas-city-royals,0,0,0,-3,0,0,0,-3,0,0,0,0-0,0-0,AL,C,0,0,0,0,0,win,0,0,20200724,kansas-city-royals_20200724
5f23631fbd19d33ee4acd59c,1,0,0,W1,1st,Los Angeles,Angels,los-angeles-angels,0,0,0,-13,0,0,0,-13,0,0,0,0-0,0-0,AL,W,0,0,0,0,0,win,0,0,20200724,los-angeles-angels_20200724
5f23631fbd19d33ee4acd5a7,1,0,0,W1,1st,Los Angeles,Dodgers,los-angeles-dodgers,0,0,0,-24,0,0,0,-24,0,0,0,0-0,0-0,NL,W,0,0,0,0,0,win,0,0,20200724,los-angeles-dodgers_20200724
5f23631fbd19d33ee4acd5a2,1,0,0,W1,1st,Miami,Marlins,miami-marlins,0,0,0,-19,0,0,0,-19,0,0,0,0-0,0-0,NL,E,0,0,0,0,0,win,0,0,20200724,miami-marlins_20200724
5f23631fbd19d33ee4acd5a1,1,0,0,W1,1st,Milwaukee,Brewers,milwaukee-brewers,0,0,0,-18,0,0,0,-18,0,0,0,0-0,0-0,NL,C,0,0,0,0,0,win,0,0,20200724,milwaukee-brewers_20200724
5f23631fbd19d33ee4acd58f,1,0,0,W1,1st,Minnesota,Twins,minnesota-twins,0,0,0,0,0,0,0,0,0,0,0,0-0,0-0,AL,C,0,0,0,0,0,win,0,0,20200724,minnesota-twins_20200724
5f23631fbd19d33ee4acd5a3,1,0,0,W1,1st,New York,Mets,new-york-mets,0,0,0,-20,0,0,0,-20,0,0,0,0-0,0-0,NL,E,0,0,0,0,0,win,0,0,20200724,new-york-mets_20200724
5f23631fbd19d33ee4acd594,1,0,0,W1,1st,New York,Yankees,new-york-yankees,0,0,0,-5,0,0,0,-5,0,0,0,0-0,0-0,AL,E,0,0,0,0,0,win,0,0,20200724,new-york-yankees_20200724
5f23631fbd19d33ee4acd599,1,0,0,W1,1st,Oakland,Athletics,oakland-athletics,0,0,0,-10,0,0,0,-10,0,0,0,0-0,0-0,AL,W,0,0,0,0,0,win,0,0,20200724,oakland-athletics_20200724
5f23631fbd19d33ee4acd5a6,1,0,0,W1,1st,Philadelphia,Phillies,philadelphia-phillies,0,0,0,-23,0,0,0,-23,0,0,0,0-0,0-0,NL,E,0,0,0,0,0,win,0,0,20200724,philadelphia-phillies_20200724
5f23631fbd19d33ee4acd5a0,1,0,0,W1,1st,Pittsburgh,Pirates,pittsburgh-pirates,0,0,0,-17,0,0,0,-17,0,0,0,0-0,0-0,NL,C,0,0,0,0,0,win,0,0,20200724,pittsburgh-pirates_20200724
5f23631fbd19d33ee4acd5a8,1,0,0,W1,1st,San Diego,Padres,san-diego-padres,0,0,0,-25,0,0,0,-25,0,0,0,0-0,0-0,NL,W,0,0,0,0,0,win,0,0,20200724,san-diego-padres_20200724
5f23631fbd19d33ee4acd5ab,1,0,0,W1,1st,San Francisco,Giants,san-francisco-giants,0,0,0,-28,0,0,0,-28,0,0,0,0-0,0-0,NL,W,0,0,0,0,0,win,0,0,20200724,san-francisco-giants_20200724
5f23631fbd19d33ee4acd59b,1,0,0,W1,1st,Seattle,Mariners,seattle-mariners,0,0,0,-12,0,0,0,-12,0,0,0,0-0,0-0,AL,W,0,0,0,0,0,win,0,0,20200724,seattle-mariners_20200724
5f23631fbd19d33ee4acd59e,1,0,0,W1,1st,St. Louis,Cardinals,st-louis-cardinals,0,0,0,-15,0,0,0,-15,0,0,0,0-0,0-0,NL,C,0,0,0,0,0,win,0,0,20200724,st-louis-cardinals_20200724
5f23631fbd19d33ee4acd597,1,0,0,W1,1st,Tampa Bay,Rays,tampa-bay-rays,0,0,0,-8,0,0,0,-8,0,0,0,0-0,0-0,AL,E,0,0,0,0,0,win,0,0,20200724,tampa-bay-rays_20200724
5f23631fbd19d33ee4acd598,1,0,0,W1,1st,Texas,Rangers,texas-rangers,0,0,0,-9,0,0,0,-9,0,0,0,0-0,0-0,AL,W,0,0,0,0,0,win,0,0,20200724,texas-rangers_20200724
5f23631fbd19d33ee4acd593,1,0,0,W1,1st,Toronto,Blue Jays,toronto-blue-jays,0,0,0,-4,0,0,0,-4,0,0,0,0-0,0-0,AL,E,0,0,0,0,0,win,0,0,20200724,toronto-blue-jays_20200724
5f23631fbd19d33ee4acd5a4,1,0,0,W1,1st,Washington,Nationals,washington-nationals,0,0,0,-21,0,0,0,-21,0,0,0,0-0,0-0,NL,E,0,0,0,0,0,win,0,0,20200724,washington-nationals_20200724
5f20b647488b4b55c4c95431,3,0,1,L1,3rd,Arizona,Diamondbacks,arizona-diamondbacks,1.5,2,7,0,0,0,1,0,1,0,1,0-1,0-1,NL,W,2,7,0,-5,-5,loss,1,1,20200725,arizona-diamondbacks_20200725
5f20b647488b4b55c4c9542c,3,0,1,L1,3rd,Atlanta,Braves,atlanta-braves,1,0,1,0,0,0,1,0,1,0,1,0-1,0-1,NL,E,0,1,0,-1,-1,loss,1,1,20200725,atlanta-braves_20200725
5f20b647488b4b55c4c9541d,4,0,1,L1,4th,Baltimore,Orioles,baltimore-orioles,1,2,13,0,0,0,1,0,1,0,1,0-1,0-1,AL,E,2,13,0,-11,-11,loss,1,1,20200725,baltimore-orioles_20200725
5f20b647488b4b55c4c9541c,1,1,0,W1,1st,Boston,Red Sox,boston-red-sox,0,13,2,1,0,0,0,1,0,1,0,1-0,1-0,AL,E,13,2,1,11,11,win,1,1,20200725,boston-red-sox_20200725
5f20b647488b4b55c4c95426,1,1,0,W1,1st,Chicago,Cubs,chicago-cubs,0,3,0,1,0,0,0,1,0,1,0,1-0,1-0,NL,C,3,0,1,3,3,win,1,1,20200725,chicago-cubs_20200725
5f20b647488b4b55c4c95417,3,0,1,L1,3rd,Chicago,White Sox,chicago-white-sox,1,5,10,0,1,0,0,0,1,0,1,0-1,0-1,AL,C,5,10,0,-5,-5,loss,1,1,20200725,chicago-white-sox_20200725
5f20b647488b4b55c4c95424,1,1,0,W1,1st,Cincinnati,Reds,cincinnati-reds,0,7,1,1,0,0,0,0,0,0,0,1-0,1-0,NL,C,7,1,1,6,6,win,1,1,20200725,cincinnati-reds_20200725
5f20b647488b4b55c4c95415,1,1,0,W1,1st,Cleveland,Indians,cleveland-indians,0,2,0,1,0,0,0,1,0,1,0,1-0,1-0,AL,C,2,0,1,2,2,win,1,1,20200725,cleveland-indians_20200725
5f20b647488b4b55c4c95430,3,0,1,L1,3rd,Colorado,Rockies,colorado-rockies,1.5,0,1,0,0,0,1,0,0,0,0,0-1,0-1,NL,W,0,1,0,-1,-1,loss,1,1,20200725,colorado-rockies_20200725
5f20b647488b4b55c4c95418,3,0,1,L1,3rd,Detroit,Tigers,detroit-tigers,1,1,7,0,0,0,1,0,0,0,0,0-1,0-1,AL,C,1,7,0,-6,-6,loss,1,1,20200725,detroit-tigers_20200725
5f20b647488b4b55c4c95421,1,1,0,W1,1st,Houston,Astros,houston-astros,0,8,2,1,0,0,0,1,0,1,0,1-0,1-0,AL,W,8,2,1,6,6,win,1,1,20200725,houston-astros_20200725
5f20b647488b4b55c4c95419,3,0,1,L1,3rd,Kansas City,Royals,kansas-city-royals,1,0,2,0,0,0,1,0,1,0,1,0-1,0-1,AL,C,0,2,0,-2,-2,loss,1,1,20200725,kansas-city-royals_20200725
5f20b647488b4b55c4c95423,4,0,1,L1,4th,Los Angeles,Angels,los-angeles-angels,1,3,7,0,0,0,1,0,1,0,1,0-1,0-1,AL,W,3,7,0,-4,-4,loss,1,1,20200725,los-angeles-angels_20200725
5f20b647488b4b55c4c9542e,1,2,0,W2,1st,Los Angeles,Dodgers,los-angeles-dodgers,0,17,2,2,0,0,0,2,0,2,0,2-0,2-0,NL,W,8.5,1,1,15,7.5,win,2,2,20200725,los-angeles-dodgers_20200725
5f20b647488b4b55c4c95429,1,1,0,W1,1st,Miami,Marlins,miami-marlins,0,5,2,0,0,1,0,1,0,1,0,1-0,1-0,NL,E,5,2,1,3,3,win,1,1,20200725,miami-marlins_20200725
5f20b647488b4b55c4c95428,4,0,1,L1,4th,Milwaukee,Brewers,milwaukee-brewers,1,0,3,0,0,0,1,0,1,0,1,0-1,0-1,NL,C,0,3,0,-3,-3,loss,1,1,20200725,milwaukee-brewers_20200725
5f20b647488b4b55c4c95416,1,1,0,W1,1st,Minnesota,Twins,minnesota-twins,0,10,5,0,0,1,0,1,0,1,0,1-0,1-0,AL,C,10,5,1,5,5,win,1,1,20200725,minnesota-twins_20200725
5f20b647488b4b55c4c9542a,1,1,0,W1,1st,New York,Mets,new-york-mets,0,1,0,1,0,0,0,1,0,1,0,1-0,1-0,NL,E,1,0,1,1,1,win,1,1,20200725,new-york-mets_20200725
5f20b647488b4b55c4c9541b,1,1,0,W1,1st,New York,Yankees,new-york-yankees,0,4,1,0,0,1,0,0,0,0,0,1-0,1-0,AL,E,4,1,1,3,3,win,1,1,20200725,new-york-yankees_20200725
5f20b647488b4b55c4c95420,1,1,0,W1,1st,Oakland,Athletics,oakland-athletics,0,7,3,1,0,0,0,1,0,1,0,1-0,1-0,AL,W,7,3,1,4,4,win,1,1,20200725,oakland-athletics_20200725
5f20b647488b4b55c4c9542d,3,0,1,L1,3rd,Philadelphia,Phillies,philadelphia-phillies,1,2,5,0,1,0,0,0,1,0,1,0-1,0-1,NL,E,2,5,0,-3,-3,loss,1,1,20200725,philadelphia-phillies_20200725
5f20b647488b4b55c4c95427,4,0,1,L1,4th,Pittsburgh,Pirates,pittsburgh-pirates,1,4,5,0,0,0,1,0,1,0,1,0-1,0-1,NL,C,4,5,0,-1,-1,loss,1,1,20200725,pittsburgh-pirates_20200725
5f20b647488b4b55c4c9542f,1,1,0,W1,1st,San Diego,Padres,san-diego-padres,0.5,7,2,1,0,0,0,1,0,1,0,1-0,1-0,NL,W,7,2,1,5,5,win,1,1,20200725,san-diego-padres_20200725
5f20b647488b4b55c4c95432,3,0,2,L2,3rd,San Francisco,Giants,san-francisco-giants,2,2,17,0,0,0,2,0,2,0,2,0-2,0-2,NL,W,1,8.5,0,-15,-7.5,loss,2,2,20200725,san-francisco-giants_20200725
5f20b647488b4b55c4c95422,4,0,1,L1,4th,Seattle,Mariners,seattle-mariners,1,2,8,0,0,0,1,0,1,0,1,0-1,0-1,AL,W,2,8,0,-6,-6,loss,1,1,20200725,seattle-mariners_20200725
5f20b647488b4b55c4c95425,1,1,0,W1,1st,St. Louis,Cardinals,st-louis-cardinals,0,5,4,1,0,0,0,1,0,1,0,1-0,1-0,NL,C,5,4,1,1,1,win,1,1,20200725,st-louis-cardinals_20200725
5f20b647488b4b55c4c9541e,4,0,1,L1,4th,Tampa Bay,Rays,tampa-bay-rays,1,4,6,0,1,0,0,0,1,0,1,0-1,0-1,AL,E,4,6,0,-2,-2,loss,1,1,20200725,tampa-bay-rays_20200725
5f20b647488b4b55c4c9541f,1,1,0,W1,1st,Texas,Rangers,texas-rangers,0,1,0,1,0,0,0,0,0,0,0,1-0,1-0,AL,W,1,0,1,1,1,win,1,1,20200725,texas-rangers_20200725
5f20b647488b4b55c4c9541a,1,1,0,W1,1st,Toronto,Blue Jays,toronto-blue-jays,0,6,4,0,0,1,0,1,0,1,0,1-0,1-0,AL,E,6,4,1,2,2,win,1,1,20200725,toronto-blue-jays_20200725
5f20b647488b4b55c4c9542b,3,0,1,L1,3rd,Washington,Nationals,washington-nationals,1,1,4,0,1,0,0,0,0,0,0,0-1,0-1,NL,E,1,4,0,-3,-3,loss,1,1,20200725,washington-nationals_20200725
5f20b182d24e6d64f0f6957f,5,1,3,L1,5th,Arizona,Diamondbacks,arizona-diamondbacks,2,9,21,0,0,1,3,1,3,1,3,1-3,1-3,NL,W,2.2,5.2,0.25,-12,-3,loss,1,4,20200728,arizona-diamondbacks_20200728
5f20b182d24e6d64f0f69578,2,2,2,L1,2nd,Atlanta,Braves,atlanta-braves,0.5,24,19,0,0,2,2,2,1,2,1,2-2,2-2,NL,E,6,4.8,0.5,5,1.2,loss,1,4,20200728,atlanta-braves_20200728
5f20b182d24e6d64f0f69569,2,2,1,W2,2nd,Baltimore,Orioles,baltimore-orioles,0.5,16,19,0,0,2,1,2,1,2,1,2-1,2-1,AL,E,5.3,6.3,0.667,-3,-1,win,2,3,20200728,baltimore-orioles_20200728
5f20b182d24e6d64f0f6956b,5,1,3,L3,5th,Boston,Red Sox,boston-red-sox,2,23,23,1,3,0,0,1,2,1,2,1-3,1-3,AL,E,5.8,5.8,0.25,0,0,loss,3,4,20200728,boston-red-sox_20200728
5f20b182d24e6d64f0f69571,1,3,1,W2,1st,Chicago,Cubs,chicago-cubs,0,23,16,2,1,1,0,3,1,3,1,3-1,3-1,NL,C,5.8,4,0.75,7,1.8,win,2,4,20200728,chicago-cubs_20200728
5f20b182d24e6d64f0f69566,5,1,2,L1,5th,Chicago,White Sox,chicago-white-sox,1,17,27,1,2,0,0,1,2,1,2,1-2,1-2,AL,C,5.7,9,0.333,-10,-3.3,loss,1,3,20200728,chicago-white-sox_20200728
5f20b182d24e6d64f0f69574,4,1,3,L3,4th,Cincinnati,Reds,cincinnati-reds,2,20,18,1,3,0,0,0,1,0,1,1-3,1-3,NL,C,5,4.5,0.25,2,0.5,loss,3,4,20200728,cincinnati-reds_20200728
5f20b182d24e6d64f0f69562,1,2,1,W1,1st,Cleveland,Indians,cleveland-indians,0,13,5,2,1,0,0,2,1,2,1,2-1,2-1,AL,C,4.3,1.7,0.667,8,2.7,win,1,3,20200728,cleveland-indians_20200728
5f20b182d24e6d64f0f6957c,2,2,1,W2,2nd,Colorado,Rockies,colorado-rockies,0.5,8,5,0,0,2,1,0,0,0,0,2-1,2-1,NL,W,2.7,1.7,0.667,3,1,win,2,3,20200728,colorado-rockies_20200728
5f20b182d24e6d64f0f69565,3,2,2,L1,3rd,Detroit,Tigers,detroit-tigers,0.5,16,27,0,1,2,1,0,1,0,1,2-2,2-2,AL,C,4,6.8,0.5,-11,-2.8,loss,1,4,20200728,detroit-tigers_20200728
5f20b182d24e6d64f0f6956d,1,3,1,W1,1st,Houston,Astros,houston-astros,0,29,16,3,1,0,0,3,1,3,1,3-1,3-1,AL,W,7.2,4,0.75,13,3.2,win,1,4,20200728,houston-astros_20200728
5f20b182d24e6d64f0f69564,3,2,2,W1,3rd,Kansas City,Royals,kansas-city-royals,0.5,19,19,0,0,2,2,2,2,2,2,2-2,2-2,AL,C,4.8,4.8,0.5,0,0,win,1,4,20200728,kansas-city-royals_20200728
5f20b182d24e6d64f0f69570,4,1,3,L2,4th,Los Angeles,Angels,los-angeles-angels,2,11,17,0,0,1,3,1,3,1,3,1-3,1-3,AL,W,2.8,4.2,0.25,-6,-1.5,loss,2,4,20200728,los-angeles-angels_20200728
5f20b182d24e6d64f0f6957e,3,2,2,L2,3rd,Los Angeles,Dodgers,los-angeles-dodgers,1,22,10,2,2,0,0,2,2,2,2,2-2,2-2,NL,W,5.5,2.5,0.5,12,3,loss,2,4,20200728,los-angeles-dodgers_20200728
5f20b182d24e6d64f0f69576,1,2,1,W1,1st,Miami,Marlins,miami-marlins,0,17,15,0,0,2,1,2,1,2,1,2-1,2-1,NL,E,5.7,5,0.667,2,0.7,win,1,3,20200728,miami-marlins_20200728
5f20b182d24e6d64f0f69573,3,2,2,W1,3rd,Milwaukee,Brewers,milwaukee-brewers,1,15,20,0,0,2,2,2,2,2,2,2-2,2-2,NL,C,3.8,5,0.5,-5,-1.2,win,1,4,20200728,milwaukee-brewers_20200728
5f20b182d24e6d64f0f69563,1,2,1,W1,1st,Minnesota,Twins,minnesota-twins,0,27,17,0,0,2,1,2,1,2,1,2-1,2-1,AL,C,9,5.7,0.667,10,3.3,win,1,3,20200728,minnesota-twins_20200728
5f20b182d24e6d64f0f69577,2,2,2,W1,2nd,New York,Mets,new-york-mets,0.5,12,23,1,2,1,0,1,2,1,2,2-2,2-2,NL,E,3,5.8,0.5,-11,-2.8,win,1,4,20200728,new-york-mets_20200728
5f20b182d24e6d64f0f69568,2,2,1,W1,2nd,New York,Yankees,new-york-yankees,0.5,9,12,0,0,2,1,0,0,0,0,2-1,2-1,AL,E,3,4,0.667,-3,-1,win,1,3,20200728,new-york-yankees_20200728
5f20b182d24e6d64f0f6956c,1,3,1,W2,1st,Oakland,Athletics,oakland-athletics,0,17,11,3,1,0,0,3,1,3,1,3-1,3-1,AL,W,4.2,2.8,0.75,6,1.5,win,2,4,20200728,oakland-athletics_20200728
5f20b182d24e6d64f0f69579,4,1,2,L1,4th,Philadelphia,Phillies,philadelphia-phillies,1,15,17,1,2,0,0,1,2,1,2,1-2,1-2,NL,E,5,5.7,0.333,-2,-0.7,loss,1,3,20200728,philadelphia-phillies_20200728
5f20b182d24e6d64f0f69575,4,1,3,L1,4th,Pittsburgh,Pirates,pittsburgh-pirates,2,15,21,0,1,1,2,1,3,1,3,1-3,1-3,NL,C,3.8,5.2,0.25,-6,-1.5,loss,1,4,20200728,pittsburgh-pirates_20200728
5f20b182d24e6d64f0f6957b,1,3,1,W1,1st,San Diego,Padres,san-diego-padres,0,21,9,3,1,0,0,3,1,3,1,3-1,3-1,NL,W,5.2,2.2,0.75,12,3,win,1,4,20200728,san-diego-padres_20200728
5f20b182d24e6d64f0f6957d,3,2,2,W2,3rd,San Francisco,Giants,san-francisco-giants,1,10,22,0,0,2,2,2,2,2,2,2-2,2-2,NL,W,2.5,5.5,0.5,-12,-3,win,2,4,20200728,san-francisco-giants_20200728
5f20b182d24e6d64f0f6956f,4,1,3,L1,4th,Seattle,Mariners,seattle-mariners,2,16,29,0,0,1,3,1,3,1,3,1-3,1-3,AL,W,4,7.2,0.25,-13,-3.2,loss,1,4,20200728,seattle-mariners_20200728
5f20b182d24e6d64f0f69572,2,2,1,L1,2nd,St. Louis,Cardinals,st-louis-cardinals,0.5,15,10,2,1,0,0,2,1,2,1,2-1,2-1,NL,C,5,3.3,0.667,5,1.7,loss,1,3,20200728,st-louis-cardinals_20200728
5f20b182d24e6d64f0f69567,1,3,1,W3,1st,Tampa Bay,Rays,tampa-bay-rays,0,28,17,3,1,0,0,2,1,2,1,3-1,3-1,AL,E,7,4.2,0.75,11,2.8,win,3,4,20200728,tampa-bay-rays_20200728
5f20b182d24e6d64f0f6956e,3,1,2,L2,3rd,Texas,Rangers,texas-rangers,1.5,5,8,1,2,0,0,0,0,0,0,1-2,1-2,AL,W,1.7,2.7,0.333,-3,-1,loss,2,3,20200728,texas-rangers_20200728
5f20b182d24e6d64f0f6956a,4,2,2,W1,4th,Toronto,Blue Jays,toronto-blue-jays,1,16,15,0,0,2,2,1,2,1,2,2-2,2-2,AL,E,4,3.8,0.5,1,0.2,win,1,4,20200728,toronto-blue-jays_20200728
5f20b182d24e6d64f0f6957a,5,1,3,L2,5th,Washington,Nationals,washington-nationals,1.5,13,13,1,3,0,0,0,0,0,0,1-3,1-3,NL,E,3.2,3.2,0.25,0,0,loss,2,4,20200728,washington-nationals_20200728
5f218dbf362fe04c44b7f1e8,4,2,3,W1,4th,Arizona,Diamondbacks,arizona-diamondbacks,2,13,22,0,0,2,3,1,3,1,3,2-3,2-3,NL,W,2.6,4.4,0.4,-9,-1.8,win,1,5,20200729,arizona-diamondbacks_20200729
5f218dbf362fe04c44b7f1e2,3,2,3,L2,3rd,Atlanta,Braves,atlanta-braves,1,26,24,0,0,2,3,2,1,2,1,2-3,2-3,NL,E,5.2,4.8,0.4,2,0.4,loss,2,5,20200729,atlanta-braves_20200729
5f218dbf362fe04c44b7f1d3,2,2,1,W2,2nd,Baltimore,Orioles,baltimore-orioles,1,16,19,0,0,2,1,2,1,2,1,2-1,2-1,AL,E,5.3,6.3,0.667,-3,-1,win,2,3,20200729,baltimore-orioles_20200729
5f218dbf362fe04c44b7f1d5,5,1,4,L4,5th,Boston,Red Sox,boston-red-sox,3,26,31,1,4,0,0,1,2,1,2,1-4,1-4,AL,E,5.2,6.2,0.2,-5,-1,loss,4,5,20200729,boston-red-sox_20200729
5f218dbf362fe04c44b7f1db,1,4,1,W3,1st,Chicago,Cubs,chicago-cubs,0,31,21,2,1,2,0,4,1,4,1,4-1,4-1,NL,C,6.2,4.2,0.8,10,2,win,3,5,20200729,chicago-cubs_20200729
5f218dbf362fe04c44b7f1d0,5,1,4,L3,5th,Chicago,White Sox,chicago-white-sox,3,23,36,1,2,0,2,1,4,1,4,1-4,1-4,AL,C,4.6,7.2,0.2,-13,-2.6,loss,3,5,20200729,chicago-white-sox_20200729
5f218dbf362fe04c44b7f1df,5,1,4,L4,5th,Cincinnati,Reds,cincinnati-reds,3,25,26,1,4,0,0,0,2,0,2,1-4,1-4,NL,C,5,5.2,0.2,-1,-0.2,loss,4,5,20200729,cincinnati-reds_20200729
5f218dbf362fe04c44b7f1cc,1,4,1,W3,1st,Cleveland,Indians,cleveland-indians,0,22,11,4,1,0,0,4,1,4,1,4-1,4-1,AL,C,4.4,2.2,0.8,11,2.2,win,3,5,20200729,cleveland-indians_20200729
5f218dbf362fe04c44b7f1e6,2,3,1,W3,2nd,Colorado,Rockies,colorado-rockies,0.5,16,8,0,0,3,1,0,0,0,0,3-1,3-1,NL,W,4,2,0.75,8,2,win,3,4,20200729,colorado-rockies_20200729
5f218dbf362fe04c44b7f1ce,3,3,2,W1,3rd,Detroit,Tigers,detroit-tigers,1,20,30,1,1,2,1,1,1,1,1,3-2,3-2,AL,C,4,6,0.6,-10,-2,win,1,5,20200729,detroit-tigers_20200729
5f218dbf362fe04c44b7f1d6,1,3,2,L1,1st,Houston,Astros,houston-astros,0,31,21,3,2,0,0,3,1,3,1,3-2,3-2,AL,W,6.2,4.2,0.6,10,2,loss,1,5,20200729,houston-astros_20200729
5f218dbf362fe04c44b7f1cf,4,2,3,L1,4th,Kansas City,Royals,kansas-city-royals,2,22,23,0,0,2,3,2,3,2,3,2-3,2-3,AL,C,4.4,4.6,0.4,-1,-0.2,loss,1,5,20200729,kansas-city-royals_20200729
5f218dbf362fe04c44b7f1d8,3,2,3,W1,3rd,Los Angeles,Angels,los-angeles-angels,1,21,19,1,0,1,3,2,3,2,3,2-3,2-3,AL,W,4.2,3.8,0.4,2,0.4,win,1,5,20200729,los-angeles-angels_20200729
5f218dbf362fe04c44b7f1e7,3,3,2,W1,3rd,Los Angeles,Dodgers,los-angeles-dodgers,1,27,12,2,2,1,0,2,2,2,2,3-2,3-2,NL,W,5.4,2.4,0.6,15,3,win,1,5,20200729,los-angeles-dodgers_20200729
5f218dbf362fe04c44b7f1e0,1,2,1,W1,1st,Miami,Marlins,miami-marlins,0,17,15,0,0,2,1,2,1,2,1,2-1,2-1,NL,E,5.7,5,0.667,2,0.7,win,1,3,20200729,miami-marlins_20200729
5f218dbf362fe04c44b7f1de,3,2,3,L1,3rd,Milwaukee,Brewers,milwaukee-brewers,2,21,28,0,0,2,3,2,3,2,3,2-3,2-3,NL,C,4.2,5.6,0.4,-7,-1.4,loss,1,5,20200729,milwaukee-brewers_20200729
5f218dbf362fe04c44b7f1cd,2,3,1,W2,2nd,Minnesota,Twins,minnesota-twins,0.5,33,20,1,0,2,1,2,1,2,1,3-1,3-1,AL,C,8.2,5,0.75,13,3.2,win,2,4,20200729,minnesota-twins_20200729
5f218dbf362fe04c44b7f1e1,2,3,2,W2,2nd,New York,Mets,new-york-mets,0,20,26,1,2,2,0,1,2,1,2,3-2,3-2,NL,E,4,5.2,0.6,-6,-1.2,win,2,5,20200729,new-york-mets_20200729
5f218dbf362fe04c44b7f1d2,2,2,1,W1,2nd,New York,Yankees,new-york-yankees,1,9,12,0,0,2,1,0,0,0,0,2-1,2-1,AL,E,3,4,0.667,-3,-1,win,1,3,20200729,new-york-yankees_20200729
5f218dbf362fe04c44b7f1d7,1,3,2,L1,1st,Oakland,Athletics,oakland-athletics,0,20,19,3,2,0,0,3,1,3,1,3-2,3-2,AL,W,4,3.8,0.6,1,0.2,loss,1,5,20200729,oakland-athletics_20200729
5f218dbf362fe04c44b7f1e3,4,1,2,L1,4th,Philadelphia,Phillies,philadelphia-phillies,1,15,17,1,2,0,0,1,2,1,2,1-2,1-2,NL,E,5,5.7,0.333,-2,-0.7,loss,1,3,20200729,philadelphia-phillies_20200729
5f218dbf362fe04c44b7f1dd,3,2,3,W1,3rd,Pittsburgh,Pirates,pittsburgh-pirates,2,23,27,1,1,1,2,2,3,2,3,2-3,2-3,NL,C,4.6,5.4,0.4,-4,-0.8,win,1,5,20200729,pittsburgh-pirates_20200729
5f218dbf362fe04c44b7f1e5,1,4,1,W2,1st,San Diego,Padres,san-diego-padres,0,26,12,3,1,1,0,4,1,4,1,4-1,4-1,NL,W,5.2,2.4,0.8,14,2.8,win,2,5,20200729,san-diego-padres_20200729
5f218dbf362fe04c44b7f1e9,4,2,3,L1,4th,San Francisco,Giants,san-francisco-giants,2,13,27,0,1,2,2,2,3,2,3,2-3,2-3,NL,W,2.6,5.4,0.4,-14,-2.8,loss,1,5,20200729,san-francisco-giants_20200729
5f218dbf362fe04c44b7f1da,5,1,4,L2,5th,Seattle,Mariners,seattle-mariners,2,18,39,0,0,1,4,1,4,1,4,1-4,1-4,AL,W,3.6,7.8,0.2,-21,-4.2,loss,2,5,20200729,seattle-mariners_20200729
5f218dbf362fe04c44b7f1dc,2,2,2,L2,2nd,St. Louis,Cardinals,st-louis-cardinals,1.5,18,16,2,1,0,1,2,1,2,1,2-2,2-2,NL,C,4.5,4,0.5,2,0.5,loss,2,4,20200729,st-louis-cardinals_20200729
5f218dbf362fe04c44b7f1d1,1,4,1,W4,1st,Tampa Bay,Rays,tampa-bay-rays,0,33,19,4,1,0,0,2,1,2,1,4-1,4-1,AL,E,6.6,3.8,0.8,14,2.8,win,4,5,20200729,tampa-bay-rays_20200729
5f218dbf362fe04c44b7f1d9,4,1,3,L3,4th,Texas,Rangers,texas-rangers,1.5,6,12,1,3,0,0,0,0,0,0,1-3,1-3,AL,W,1.5,3,0.25,-6,-1.5,loss,3,4,20200729,texas-rangers_20200729
5f218dbf362fe04c44b7f1d4,4,3,2,W2,4th,Toronto,Blue Jays,toronto-blue-jays,1,21,16,0,0,3,2,1,2,1,2,3-2,3-2,AL,E,4.2,3.2,0.6,5,1,win,2,5,20200729,toronto-blue-jays_20200729
5f218dbf362fe04c44b7f1e4,5,1,4,L3,5th,Washington,Nationals,washington-nationals,2,14,18,1,4,0,0,0,0,0,0,1-4,1-4,NL,E,2.8,3.6,0.2,-4,-0.8,loss,3,5,20200729,washington-nationals_20200729
5f22e77630dbf553c8bb317b,5,2,4,L1,5th,Arizona,Diamondbacks,arizona-diamondbacks,2.5,17,29,0,0,2,4,1,3,1,3,2-3,2-4,NL,W,2.8,4.8,0.333,-12,-2,loss,1,6,20200730,arizona-diamondbacks_20200730
5f22e77630dbf553c8bb3174,2,3,3,W1,2nd,Atlanta,Braves,atlanta-braves,0.5,33,28,1,0,2,3,2,1,2,1,3-2,3-3,NL,E,5.5,4.7,0.5,5,0.8,win,1,6,20200730,atlanta-braves_20200730
5f22e77630dbf553c8bb3166,3,2,2,L1,3rd,Baltimore,Orioles,baltimore-orioles,1,19,28,0,1,2,1,2,2,2,2,2-2,2-2,AL,E,4.8,7,0.5,-9,-2.2,loss,1,4,20200730,baltimore-orioles_20200730
5f22e77630dbf553c8bb3167,5,2,4,W1,5th,Boston,Red Sox,boston-red-sox,2,32,36,1,4,1,0,1,2,1,2,1-4,2-4,AL,E,5.3,6,0.333,-4,-0.7,win,1,6,20200730,boston-red-sox_20200730
5f22e77630dbf553c8bb316d,1,4,2,L1,1st,Chicago,Cubs,chicago-cubs,0,38,33,2,1,2,1,4,2,4,2,3-2,4-2,NL,C,6.3,5.5,0.667,5,0.8,loss,1,6,20200730,chicago-cubs_20200730
5f22e77630dbf553c8bb3161,4,2,4,W1,4th,Chicago,White Sox,chicago-white-sox,2.5,27,36,1,2,1,2,2,4,2,4,2-3,2-4,AL,C,4.5,6,0.333,-9,-1.5,win,1,6,20200730,chicago-white-sox_20200730
5f22e77630dbf553c8bb3170,4,2,4,W1,4th,Cincinnati,Reds,cincinnati-reds,2,37,33,2,4,0,0,1,2,1,2,1-4,2-4,NL,C,6.2,5.5,0.333,4,0.7,win,1,6,20200730,cincinnati-reds_20200730
5f22e77630dbf553c8bb315f,2,4,2,L1,2nd,Cleveland,Indians,cleveland-indians,0.5,22,15,4,2,0,0,4,2,4,2,3-2,4-2,AL,C,3.7,2.5,0.667,7,1.2,loss,1,6,20200730,cleveland-indians_20200730
5f22e77630dbf553c8bb3177,1,4,1,W4,1st,Colorado,Rockies,colorado-rockies,0,21,9,0,0,4,1,0,0,0,0,4-1,4-1,NL,W,4.2,1.8,0.8,12,2.4,win,4,5,20200730,colorado-rockies_20200730
5f22e77630dbf553c8bb3160,2,4,2,W2,2nd,Detroit,Tigers,detroit-tigers,0.5,25,34,2,1,2,1,2,1,2,1,4-1,4-2,AL,C,4.2,5.7,0.667,-9,-1.5,win,2,6,20200730,detroit-tigers_20200730
5f22e77630dbf553c8bb3168,1,3,3,L2,1st,Houston,Astros,houston-astros,0,33,25,3,3,0,0,3,1,3,1,2-3,3-3,AL,W,5.5,4.2,0.5,8,1.3,loss,2,6,20200730,houston-astros_20200730
5f22e77630dbf553c8bb3162,4,2,4,L2,4th,Kansas City,Royals,kansas-city-royals,2.5,26,28,0,0,2,4,2,4,2,4,2-3,2-4,AL,C,4.3,4.7,0.333,-2,-0.3,loss,2,6,20200730,kansas-city-royals_20200730
5f22e77630dbf553c8bb316c,4,2,4,L1,4th,Los Angeles,Angels,los-angeles-angels,1,28,29,1,1,1,3,2,4,2,4,2-3,2-4,AL,W,4.7,4.8,0.333,-1,-0.2,loss,1,6,20200730,los-angeles-angels_20200730
5f22e77630dbf553c8bb3178,2,4,2,W2,2nd,Los Angeles,Dodgers,los-angeles-dodgers,0.5,31,14,2,2,2,0,2,2,2,2,3-2,4-2,NL,W,5.2,2.3,0.667,17,2.8,win,2,6,20200730,los-angeles-dodgers_20200730
5f22e77630dbf553c8bb3172,1,2,1,W1,1st,Miami,Marlins,miami-marlins,0,17,15,0,0,2,1,2,1,2,1,2-1,2-1,NL,E,5.7,5,0.667,2,0.7,win,1,3,20200730,miami-marlins_20200730
5f22e77630dbf553c8bb316e,2,3,3,W1,2nd,Milwaukee,Brewers,milwaukee-brewers,1,24,28,0,0,3,3,3,3,3,3,3-2,3-3,NL,C,4,4.7,0.5,-4,-0.7,win,1,6,20200730,milwaukee-brewers_20200730
5f22e77630dbf553c8bb315e,1,4,1,W3,1st,Minnesota,Twins,minnesota-twins,0,36,20,2,0,2,1,2,1,2,1,4-1,4-1,AL,C,7.2,4,0.8,16,3.2,win,3,5,20200730,minnesota-twins_20200730
5f22e77630dbf553c8bb3173,2,3,3,L1,2nd,New York,Mets,new-york-mets,0.5,25,32,1,3,2,0,1,2,1,2,2-3,3-3,NL,E,4.2,5.3,0.5,-7,-1.2,loss,1,6,20200730,new-york-mets_20200730
5f22e77630dbf553c8bb3163,1,3,1,W2,1st,New York,Yankees,new-york-yankees,0,18,15,0,0,3,1,1,0,1,0,3-1,3-1,AL,E,4.5,3.8,0.75,3,0.8,win,2,4,20200730,new-york-yankees_20200730
5f22e77630dbf553c8bb3169,1,3,3,L2,1st,Oakland,Athletics,oakland-athletics,0,21,24,3,3,0,0,3,1,3,1,2-3,3-3,AL,W,3.5,4,0.5,-3,-0.5,loss,2,6,20200730,oakland-athletics_20200730
5f22e77630dbf553c8bb3175,4,1,2,L1,4th,Philadelphia,Phillies,philadelphia-phillies,1,15,17,1,2,0,0,1,2,1,2,1-2,1-2,NL,E,5,5.7,0.333,-2,-0.7,loss,1,3,20200730,philadelphia-phillies_20200730
5f22e77630dbf553c8bb3171,4,2,4,L1,4th,Pittsburgh,Pirates,pittsburgh-pirates,2,23,30,1,2,1,2,2,4,2,4,2-3,2-4,NL,C,3.8,5,0.333,-7,-1.2,loss,1,6,20200730,pittsburgh-pirates_20200730
5f22e77630dbf553c8bb3179,2,4,2,L1,2nd,San Diego,Padres,san-diego-padres,0.5,32,19,3,1,1,1,4,2,4,2,3-2,4-2,NL,W,5.3,3.2,0.667,13,2.2,loss,1,6,20200730,san-diego-padres_20200730
5f22e77630dbf553c8bb317a,4,3,3,W1,4th,San Francisco,Giants,san-francisco-giants,1.5,20,33,1,1,2,2,3,3,3,3,3-2,3-3,NL,W,3.3,5.5,0.5,-13,-2.2,win,1,6,20200730,san-francisco-giants_20200730
5f22e77630dbf553c8bb316b,4,2,4,W1,4th,Seattle,Mariners,seattle-mariners,1,28,46,0,0,2,4,2,4,2,4,2-3,2-4,AL,W,4.7,7.7,0.333,-18,-3,win,1,6,20200730,seattle-mariners_20200730
5f22e77630dbf553c8bb316f,3,2,3,L3,3rd,St. Louis,Cardinals,st-louis-cardinals,1.5,18,19,2,1,0,2,2,1,2,1,2-3,2-3,NL,C,3.6,3.8,0.4,-1,-0.2,loss,3,5,20200730,st-louis-cardinals_20200730
5f22e77630dbf553c8bb3164,2,4,2,L1,2nd,Tampa Bay,Rays,tampa-bay-rays,0,37,26,4,1,0,1,2,1,2,1,4-1,4-2,AL,E,6.2,4.3,0.667,11,1.8,loss,1,6,20200730,tampa-bay-rays_20200730
5f22e77630dbf553c8bb316a,3,2,3,W1,3rd,Texas,Rangers,texas-rangers,0.5,13,16,2,3,0,0,0,0,0,0,2-3,2-3,AL,W,2.6,3.2,0.4,-3,-0.6,win,1,5,20200730,texas-rangers_20200730
5f22e77630dbf553c8bb3165,3,3,3,L1,3rd,Toronto,Blue Jays,toronto-blue-jays,1,21,20,0,1,3,2,1,2,1,2,2-3,3-3,AL,E,3.5,3.3,0.5,1,0.2,loss,1,6,20200730,toronto-blue-jays_20200730
5f22e77630dbf553c8bb3176,4,2,4,W1,4th,Washington,Nationals,washington-nationals,1.5,18,18,1,4,1,0,0,0,0,0,2-3,2-4,NL,E,3,3,0.333,0,0,win,1,6,20200730,washington-nationals_20200730
5f242196eb52463980b0715e,5,2,5,L2,5th,Arizona,Diamondbacks,arizona-diamondbacks,3,20,35,0,1,2,4,1,4,1,4,2-3,2-5,NL,W,2.9,5,0.286,-15,-2.1,loss,2,7,20200731,arizona-diamondbacks_20200731
5f242196eb52463980b07156,2,4,3,W2,2nd,Atlanta,Braves,atlanta-braves,0,35,29,2,0,2,3,2,1,2,1,3-2,4-3,NL,E,5,4.1,0.571,6,0.9,win,2,7,20200731,atlanta-braves_20200731
5f242196eb52463980b0714a,5,2,3,L2,5th,Baltimore,Orioles,baltimore-orioles,2,25,36,0,2,2,1,2,3,2,3,2-3,2-3,AL,E,5,7.2,0.4,-11,-2.2,loss,2,5,20200731,baltimore-orioles_20200731
5f242196eb52463980b07149,3,3,4,W2,3rd,Boston,Red Sox,boston-red-sox,2,36,38,1,4,2,0,1,2,1,2,2-3,3-4,AL,E,5.1,5.4,0.429,-2,-0.3,win,2,7,20200731,boston-red-sox_20200731
5f242196eb52463980b07150,1,4,2,L1,1st,Chicago,Cubs,chicago-cubs,0,38,33,2,1,2,1,4,2,4,2,3-2,4-2,NL,C,6.3,5.5,0.667,5,0.8,loss,1,6,20200731,chicago-cubs_20200731
5f242196eb52463980b07145,5,2,4,W1,5th,Chicago,White Sox,chicago-white-sox,2.5,27,36,1,2,1,2,2,4,2,4,2-3,2-4,AL,C,4.5,6,0.333,-9,-1.5,win,1,6,20200731,chicago-white-sox_20200731
5f242196eb52463980b07153,4,2,4,W1,4th,Cincinnati,Reds,cincinnati-reds,2,37,33,2,4,0,0,1,2,1,2,1-4,2-4,NL,C,6.2,5.5,0.333,4,0.7,win,1,6,20200731,cincinnati-reds_20200731
5f242196eb52463980b07141,1,5,2,W1,1st,Cleveland,Indians,cleveland-indians,0,24,15,4,2,1,0,5,2,5,2,4-1,5-2,AL,C,3.4,2.1,0.714,9,1.3,win,1,7,20200731,cleveland-indians_20200731
5f242196eb52463980b0715a,1,4,1,W4,1st,Colorado,Rockies,colorado-rockies,0,21,9,0,0,4,1,0,0,0,0,4-1,4-1,NL,W,4.2,1.8,0.8,12,2.4,win,4,5,20200731,colorado-rockies_20200731
5f242196eb52463980b07143,3,4,3,L1,3rd,Detroit,Tigers,detroit-tigers,1,28,39,2,2,2,1,2,2,2,2,3-2,4-3,AL,C,4,5.6,0.571,-11,-1.6,loss,1,7,20200731,detroit-tigers_20200731
5f242196eb52463980b0714b,1,3,3,L2,1st,Houston,Astros,houston-astros,0,33,25,3,3,0,0,3,1,3,1,2-3,3-3,AL,W,5.5,4.2,0.5,8,1.3,loss,2,6,20200731,houston-astros_20200731
5f242196eb52463980b07144,4,3,4,W1,4th,Kansas City,Royals,kansas-city-royals,2,31,31,0,0,3,4,3,4,3,4,2-3,3-4,AL,C,4.4,4.4,0.429,0,0,win,1,7,20200731,kansas-city-royals_20200731
5f242196eb52463980b0714f,5,2,5,L2,5th,Los Angeles,Angels,los-angeles-angels,1.5,33,37,1,2,1,3,2,5,2,5,1-4,2-5,AL,W,4.7,5.3,0.286,-4,-0.6,loss,2,7,20200731,los-angeles-angels_20200731
5f242196eb52463980b0715b,2,5,2,W3,2nd,Los Angeles,Dodgers,los-angeles-dodgers,0,37,17,2,2,3,0,3,2,3,2,3-2,5-2,NL,W,5.3,2.4,0.714,20,2.9,win,3,7,20200731,los-angeles-dodgers_20200731
5f242196eb52463980b07155,1,2,1,W1,1st,Miami,Marlins,miami-marlins,0,17,15,0,0,2,1,2,1,2,1,2-1,2-1,NL,E,5.7,5,0.667,2,0.7,win,1,3,20200731,miami-marlins_20200731
5f242196eb52463980b07151,2,3,3,W1,2nd,Milwaukee,Brewers,milwaukee-brewers,1,24,28,0,0,3,3,3,3,3,3,3-2,3-3,NL,C,4,4.7,0.5,-4,-0.7,win,1,6,20200731,milwaukee-brewers_20200731
5f242196eb52463980b07142,2,4,2,L1,2nd,Minnesota,Twins,minnesota-twins,0.5,36,22,2,1,2,1,2,2,2,2,3-2,4-2,AL,C,6,3.7,0.667,14,2.3,loss,1,6,20200731,minnesota-twins_20200731
5f242196eb52463980b07158,3,3,4,L2,3rd,New York,Mets,new-york-mets,1,27,36,1,4,2,0,1,2,1,2,2-3,3-4,NL,E,3.9,5.1,0.429,-9,-1.3,loss,2,7,20200731,new-york-mets_20200731
5f242196eb52463980b07146,1,4,1,W3,1st,New York,Yankees,new-york-yankees,0,26,21,0,0,4,1,2,0,2,0,4-1,4-1,AL,E,5.2,4.2,0.8,5,1,win,3,5,20200731,new-york-yankees_20200731
5f242196eb52463980b0714c,1,3,3,L2,1st,Oakland,Athletics,oakland-athletics,0,21,24,3,3,0,0,3,1,3,1,2-3,3-3,AL,W,3.5,4,0.5,-3,-0.5,loss,2,6,20200731,oakland-athletics_20200731
5f242196eb52463980b07159,5,1,2,L1,5th,Philadelphia,Phillies,philadelphia-phillies,1,15,17,1,2,0,0,1,2,1,2,1-2,1-2,NL,E,5,5.7,0.333,-2,-0.7,loss,1,3,20200731,philadelphia-phillies_20200731
5f242196eb52463980b07154,4,2,4,L1,4th,Pittsburgh,Pirates,pittsburgh-pirates,2,23,30,1,2,1,2,2,4,2,4,2-3,2-4,NL,C,3.8,5,0.333,-7,-1.2,loss,1,6,20200731,pittsburgh-pirates_20200731
5f242196eb52463980b0715c,2,5,2,W1,2nd,San Diego,Padres,san-diego-padres,0,44,26,3,1,2,1,5,2,5,2,3-2,5-2,NL,W,6.3,3.7,0.714,18,2.6,win,1,7,20200731,san-diego-padres_20200731
5f242196eb52463980b0715d,4,3,4,L1,4th,San Francisco,Giants,san-francisco-giants,2,27,45,1,2,2,2,3,4,3,4,3-2,3-4,NL,W,3.9,6.4,0.429,-18,-2.6,loss,1,7,20200731,san-francisco-giants_20200731
5f242196eb52463980b0714d,3,3,4,W2,3rd,Seattle,Mariners,seattle-mariners,0.5,36,51,0,0,3,4,3,4,3,4,3-2,3-4,AL,W,5.1,7.3,0.429,-15,-2.1,win,2,7,20200731,seattle-mariners_20200731
5f242196eb52463980b07152,3,2,3,L3,3rd,St. Louis,Cardinals,st-louis-cardinals,1.5,18,19,2,1,0,2,2,1,2,1,2-3,2-3,NL,C,3.6,3.8,0.4,-1,-0.2,loss,3,5,20200731,st-louis-cardinals_20200731
5f242196eb52463980b07147,2,4,3,L2,2nd,Tampa Bay,Rays,tampa-bay-rays,1,38,28,4,1,0,2,2,1,2,1,3-2,4-3,AL,E,5.4,4,0.571,10,1.4,loss,2,7,20200731,tampa-bay-rays_20200731
5f242196eb52463980b0714e,4,2,3,W1,4th,Texas,Rangers,texas-rangers,0.5,13,16,2,3,0,0,0,0,0,0,2-3,2-3,AL,W,2.6,3.2,0.4,-3,-0.6,win,1,5,20200731,texas-rangers_20200731
5f242196eb52463980b07148,3,3,4,L2,3rd,Toronto,Blue Jays,toronto-blue-jays,2,25,26,0,2,3,2,1,2,1,2,2-3,3-4,AL,E,3.6,3.7,0.429,-1,-0.1,loss,2,7,20200731,toronto-blue-jays_20200731
5f242196eb52463980b07157,3,3,4,W2,3rd,Washington,Nationals,washington-nationals,1,24,22,1,4,2,0,0,0,0,0,2-3,3-4,NL,E,3.4,3.1,0.429,2,0.3,win,2,7,20200731,washington-nationals_20200731
5f25989d972e5322981684eb,5,3,5,W1,5th,Arizona,Diamondbacks,arizona-diamondbacks,3,25,38,1,1,2,4,2,4,2,4,2-3,3-5,NL,W,3.1,4.8,0.375,-13,-1.6,win,1,8,20200801,arizona-diamondbacks_20200801
5f25989d972e5322981684e2,2,5,3,W3,2nd,Atlanta,Braves,atlanta-braves,-0.5,46,39,3,0,2,3,3,1,3,1,3-2,5-3,NL,E,5.8,4.9,0.625,7,0.9,win,3,8,20200801,atlanta-braves_20200801
5f25989d972e5322981684d5,2,3,3,W1,2nd,Baltimore,Orioles,baltimore-orioles,2,31,39,1,2,2,1,3,3,3,3,3-2,3-3,AL,E,5.2,6.5,0.5,-8,-1.3,win,1,6,20200801,baltimore-orioles_20200801
5f25989d972e5322981684d7,5,3,5,L1,5th,Boston,Red Sox,boston-red-sox,3,37,43,1,4,2,1,1,3,1,3,2-3,3-5,AL,E,4.6,5.4,0.375,-6,-0.8,loss,1,8,20200801,boston-red-sox_20200801
5f25989d972e5322981684dd,1,5,2,W1,1st,Chicago,Cubs,chicago-cubs,0,44,36,3,1,2,1,5,2,5,2,4-1,5-2,NL,C,6.3,5.1,0.714,8,1.1,win,1,7,20200801,chicago-cubs_20200801
5f25989d972e5322981684d1,4,3,4,W2,4th,Chicago,White Sox,chicago-white-sox,2,30,38,1,2,2,2,3,4,3,4,2-3,3-4,AL,C,4.3,5.4,0.429,-8,-1.1,win,2,7,20200801,chicago-white-sox_20200801
5f25989d972e5322981684e0,4,2,5,L1,4th,Cincinnati,Reds,cincinnati-reds,3,39,40,2,4,0,1,1,2,1,2,1-4,2-5,NL,C,5.6,5.7,0.286,-1,-0.1,loss,1,7,20200801,cincinnati-reds_20200801
5f25989d972e5322981684d0,2,5,3,L1,2nd,Cleveland,Indians,cleveland-indians,0.5,25,19,4,2,1,1,5,3,5,3,3-2,5-3,AL,C,3.1,2.4,0.625,6,0.8,loss,1,8,20200801,cleveland-indians_20200801
5f25989d972e5322981684e8,2,4,2,L1,2nd,Colorado,Rockies,colorado-rockies,1,28,17,0,1,4,1,0,1,0,1,4-1,4-2,NL,W,4.7,2.8,0.667,11,1.8,loss,1,6,20200801,colorado-rockies_20200801
5f25989d972e5322981684cf,2,5,3,W1,2nd,Detroit,Tigers,detroit-tigers,0.5,35,41,3,2,2,1,2,2,2,2,3-2,5-3,AL,C,4.4,5.1,0.625,-6,-0.8,win,1,8,20200801,detroit-tigers_20200801
5f25989d972e5322981684d8,1,4,3,W1,1st,Houston,Astros,houston-astros,0,42,31,3,3,1,0,4,1,4,1,2-3,4-3,AL,W,6,4.4,0.571,11,1.6,win,1,7,20200801,houston-astros_20200801
5f25989d972e5322981684d2,5,3,5,L1,5th,Kansas City,Royals,kansas-city-royals,2.5,33,34,0,1,3,4,3,5,3,5,2-3,3-5,AL,C,4.1,4.2,0.375,-1,-0.1,loss,1,8,20200801,kansas-city-royals_20200801
5f25989d972e5322981684dc,5,2,6,L3,5th,Los Angeles,Angels,los-angeles-angels,2.5,39,46,1,3,1,3,2,6,2,6,1-4,2-6,AL,W,4.9,5.8,0.25,-7,-0.9,loss,3,8,20200801,los-angeles-angels_20200801
5f25989d972e5322981684e9,3,5,3,L1,3rd,Los Angeles,Dodgers,los-angeles-dodgers,1,40,22,2,2,3,1,3,3,3,3,3-2,5-3,NL,W,5,2.8,0.625,18,2.2,loss,1,8,20200801,los-angeles-dodgers_20200801
5f25989d972e5322981684e3,1,2,1,W1,1st,Miami,Marlins,miami-marlins,0,17,15,0,0,2,1,2,1,2,1,2-1,2-1,NL,E,5.7,5,0.667,2,0.7,win,1,3,20200801,miami-marlins_20200801
5f25989d972e5322981684de,2,3,3,W1,2nd,Milwaukee,Brewers,milwaukee-brewers,1.5,24,28,0,0,3,3,3,3,3,3,3-2,3-3,NL,C,4,4.7,0.5,-4,-0.7,win,1,6,20200801,milwaukee-brewers_20200801
5f25989d972e5322981684ce,1,5,2,W1,1st,Minnesota,Twins,minnesota-twins,0,40,23,3,1,2,1,3,2,3,2,4-1,5-2,AL,C,5.7,3.3,0.714,17,2.4,win,1,7,20200801,minnesota-twins_20200801
5f25989d972e5322981684e6,4,3,5,L3,4th,New York,Mets,new-york-mets,1.5,37,47,1,4,2,1,1,3,1,3,2-3,3-5,NL,E,4.6,5.9,0.375,-10,-1.2,loss,3,8,20200801,new-york-mets_20200801
5f25989d972e5322981684d3,1,5,1,W4,1st,New York,Yankees,new-york-yankees,0,31,22,1,0,4,1,3,0,3,0,4-1,5-1,AL,E,5.2,3.7,0.833,9,1.5,win,4,6,20200801,new-york-yankees_20200801
5f25989d972e5322981684da,3,3,4,L3,3rd,Oakland,Athletics,oakland-athletics,1,24,29,3,3,0,1,3,2,3,2,2-3,3-4,AL,W,3.4,4.1,0.429,-5,-0.7,loss,3,7,20200801,oakland-athletics_20200801
5f25989d972e5322981684e5,5,1,2,L1,5th,Philadelphia,Phillies,philadelphia-phillies,1,15,17,1,2,0,0,1,2,1,2,1-2,1-2,NL,E,5,5.7,0.333,-2,-0.7,loss,1,3,20200801,philadelphia-phillies_20200801
5f25989d972e5322981684e1,4,2,5,L2,4th,Pittsburgh,Pirates,pittsburgh-pirates,3,26,36,1,2,1,3,2,5,2,5,2-3,2-5,NL,C,3.7,5.1,0.286,-10,-1.4,loss,2,7,20200801,pittsburgh-pirates_20200801
5f25989d972e5322981684e7,1,6,2,W2,1st,San Diego,Padres,san-diego-padres,0,52,33,3,1,3,1,6,2,6,2,4-1,6-2,NL,W,6.5,4.1,0.75,19,2.4,win,2,8,20200801,san-diego-padres_20200801
5f25989d972e5322981684ea,4,4,4,W1,4th,San Francisco,Giants,san-francisco-giants,2,36,47,2,2,2,2,3,4,3,4,3-2,4-4,NL,W,4.5,5.9,0.5,-11,-1.4,win,1,8,20200801,san-francisco-giants_20200801
5f25989d972e5322981684d9,2,4,4,W3,2nd,Seattle,Mariners,seattle-mariners,0.5,41,54,1,0,3,4,4,4,4,4,3-2,4-4,AL,W,5.1,6.8,0.5,-13,-1.6,win,3,8,20200801,seattle-mariners_20200801
5f25989d972e5322981684df,3,2,3,L3,3rd,St. Louis,Cardinals,st-louis-cardinals,2,18,19,2,1,0,2,2,1,2,1,2-3,2-3,NL,C,3.6,3.8,0.4,-1,-0.2,loss,3,5,20200801,st-louis-cardinals_20200801
5f25989d972e5322981684d4,2,4,4,L3,2nd,Tampa Bay,Rays,tampa-bay-rays,2,41,34,4,1,0,3,2,2,2,2,2-3,4-4,AL,E,5.1,4.2,0.5,7,0.9,loss,3,8,20200801,tampa-bay-rays_20200801
5f25989d972e5322981684db,4,2,4,L1,4th,Texas,Rangers,texas-rangers,1.5,15,25,2,3,0,1,0,0,0,0,1-4,2-4,AL,W,2.5,4.2,0.333,-10,-1.7,loss,1,6,20200801,texas-rangers_20200801
5f25989d972e5322981684d6,4,3,4,L2,4th,Toronto,Blue Jays,toronto-blue-jays,2.5,25,26,0,2,3,2,1,2,1,2,2-3,3-4,AL,E,3.6,3.7,0.429,-1,-0.1,loss,2,7,20200801,toronto-blue-jays_20200801
5f25989d972e5322981684e4,3,3,4,W2,3rd,Washington,Nationals,washington-nationals,1,24,22,1,4,2,0,0,0,0,0,2-3,3-4,NL,E,3.4,3.1,0.429,2,0.3,win,2,7,20200801,washington-nationals_20200801
5f26e57b6831761ac840bf3a,5,3,6,L1,5th,Arizona,Diamondbacks,arizona-diamondbacks,3,27,49,1,2,2,4,2,5,2,5,2-3,3-6,NL,W,3,5.4,0.333,-22,-2.4,loss,1,9,20200802,arizona-diamondbacks_20200802
5f26e57b6831761ac840bf31,1,6,3,W4,1st,Atlanta,Braves,atlanta-braves,0,53,40,4,0,2,3,4,1,4,1,4-1,6-3,NL,E,5.9,4.4,0.667,13,1.4,win,4,9,20200802,atlanta-braves_20200802
5f26e57b6831761ac840bf23,2,4,3,W2,2nd,Baltimore,Orioles,baltimore-orioles,2,36,43,2,2,2,1,4,3,4,3,3-2,4-3,AL,E,5.1,6.1,0.571,-7,-1,win,2,7,20200802,baltimore-orioles_20200802
5f26e57b6831761ac840bf26,5,3,6,L2,5th,Boston,Red Sox,boston-red-sox,4,39,48,1,4,2,2,1,4,1,4,2-3,3-6,AL,E,4.3,5.3,0.333,-9,-1,loss,2,9,20200802,boston-red-sox_20200802
5f26e57b6831761ac840bf2c,1,6,2,W2,1st,Chicago,Cubs,chicago-cubs,0,48,39,4,1,2,1,6,2,6,2,4-1,6-2,NL,C,6,4.9,0.75,9,1.1,win,2,8,20200802,chicago-cubs_20200802
5f26e57b6831761ac840bf20,4,4,4,W3,4th,Chicago,White Sox,chicago-white-sox,2,41,43,1,2,3,2,4,4,4,4,3-2,4-4,AL,C,5.1,5.4,0.5,-2,-0.2,win,3,8,20200802,chicago-white-sox_20200802
5f26e57b6831761ac840bf2f,4,2,5,L1,4th,Cincinnati,Reds,cincinnati-reds,3.5,39,40,2,4,0,1,1,2,1,2,1-4,2-5,NL,C,5.6,5.7,0.286,-1,-0.1,loss,1,7,20200802,cincinnati-reds_20200802
5f26e57b6831761ac840bf1f,3,5,4,L2,3rd,Cleveland,Indians,cleveland-indians,1.5,25,22,4,2,1,2,5,4,5,4,2-3,5-4,AL,C,2.8,2.4,0.556,3,0.3,loss,2,9,20200802,cleveland-indians_20200802
5f26e57b6831761ac840bf36,1,5,2,W1,1st,Colorado,Rockies,colorado-rockies,0,34,18,1,1,4,1,1,1,1,1,4-1,5-2,NL,W,4.9,2.6,0.714,16,2.3,win,1,7,20200802,colorado-rockies_20200802
5f26e57b6831761ac840bf1e,2,5,3,W1,2nd,Detroit,Tigers,detroit-tigers,1,35,41,3,2,2,1,2,2,2,2,3-2,5-3,AL,C,4.4,5.1,0.625,-6,-0.8,win,1,8,20200802,detroit-tigers_20200802
5f26e57b6831761ac840bf28,1,4,4,L1,1st,Houston,Astros,houston-astros,0,46,36,3,3,1,1,4,2,4,2,2-3,4-4,AL,W,5.8,4.5,0.5,10,1.2,loss,1,8,20200802,houston-astros_20200802
5f26e57b6831761ac840bf21,5,3,6,L2,5th,Kansas City,Royals,kansas-city-royals,3.5,38,45,0,2,3,4,3,6,3,6,1-4,3-6,AL,C,4.2,5,0.333,-7,-0.8,loss,2,9,20200802,kansas-city-royals_20200802
5f26e57b6831761ac840bf2a,4,3,6,W1,4th,Los Angeles,Angels,los-angeles-angels,1.5,44,50,2,3,1,3,3,6,3,6,2-3,3-6,AL,W,4.9,5.6,0.333,-6,-0.7,win,1,9,20200802,los-angeles-angels_20200802
5f26e57b6831761ac840bf38,2,6,3,W1,2nd,Los Angeles,Dodgers,los-angeles-dodgers,0,51,24,2,2,4,1,4,3,4,3,4-1,6-3,NL,W,5.7,2.7,0.667,27,3,win,1,9,20200802,los-angeles-dodgers_20200802
5f26e57b6831761ac840bf32,1,2,1,W1,1st,Miami,Marlins,miami-marlins,1,17,15,0,0,2,1,2,1,2,1,2-1,2-1,NL,E,5.7,5,0.667,2,0.7,win,1,3,20200802,miami-marlins_20200802
5f26e57b6831761ac840bf2d,2,3,3,W1,2nd,Milwaukee,Brewers,milwaukee-brewers,2,24,28,0,0,3,3,3,3,3,3,3-2,3-3,NL,C,4,4.7,0.5,-4,-0.7,win,1,6,20200802,milwaukee-brewers_20200802
5f26e57b6831761ac840bf1d,1,6,2,W2,1st,Minnesota,Twins,minnesota-twins,0,43,23,4,1,2,1,4,2,4,2,4-1,6-2,AL,C,5.4,2.9,0.75,20,2.5,win,2,8,20200802,minnesota-twins_20200802
5f26e57b6831761ac840bf35,4,3,6,L4,4th,New York,Mets,new-york-mets,3,38,54,1,4,2,2,1,4,1,4,1-4,3-6,NL,E,4.2,6,0.333,-16,-1.8,loss,4,9,20200802,new-york-mets_20200802
5f26e57b6831761ac840bf22,1,6,1,W5,1st,New York,Yankees,new-york-yankees,0,36,24,2,0,4,1,4,0,4,0,5-0,6-1,AL,E,5.1,3.4,0.857,12,1.7,win,5,7,20200802,new-york-yankees_20200802
5f26e57b6831761ac840bf27,1,4,4,W1,1st,Oakland,Athletics,oakland-athletics,0,27,31,3,3,1,1,4,2,4,2,2-3,4-4,AL,W,3.4,3.9,0.5,-4,-0.5,win,1,8,20200802,oakland-athletics_20200802
5f26e57b6831761ac840bf34,4,1,2,L1,4th,Philadelphia,Phillies,philadelphia-phillies,2,15,17,1,2,0,0,1,2,1,2,1-2,1-2,NL,E,5,5.7,0.333,-2,-0.7,loss,1,3,20200802,philadelphia-phillies_20200802
5f26e57b6831761ac840bf30,5,2,6,L3,5th,Pittsburgh,Pirates,pittsburgh-pirates,4,29,40,1,2,1,4,2,6,2,6,1-4,2-6,NL,C,3.6,5,0.25,-11,-1.4,loss,3,8,20200802,pittsburgh-pirates_20200802
5f26e57b6831761ac840bf37,2,6,3,L1,2nd,San Diego,Padres,san-diego-padres,0,53,39,3,1,3,2,6,3,6,3,3-2,6-3,NL,W,5.9,4.3,0.667,14,1.6,loss,1,9,20200802,san-diego-padres_20200802
5f26e57b6831761ac840bf39,4,5,4,W2,4th,San Francisco,Giants,san-francisco-giants,1,43,50,3,2,2,2,3,4,3,4,3-2,5-4,NL,W,4.8,5.6,0.556,-7,-0.8,win,2,9,20200802,san-francisco-giants_20200802
5f26e57b6831761ac840bf29,3,4,5,L1,3rd,Seattle,Mariners,seattle-mariners,0.5,43,57,1,1,3,4,4,5,4,5,3-2,4-5,AL,W,4.8,6.3,0.444,-14,-1.6,loss,1,9,20200802,seattle-mariners_20200802
5f26e57b6831761ac840bf2e,3,2,3,L3,3rd,St. Louis,Cardinals,st-louis-cardinals,2.5,18,19,2,1,0,2,2,1,2,1,2-3,2-3,NL,C,3.6,3.8,0.4,-1,-0.2,loss,3,5,20200802,st-louis-cardinals_20200802
5f26e57b6831761ac840bf24,3,4,5,L4,3rd,Tampa Bay,Rays,tampa-bay-rays,3,45,39,4,1,0,4,2,3,2,3,1-4,4-5,AL,E,5,4.3,0.444,6,0.7,loss,4,9,20200802,tampa-bay-rays_20200802
5f26e57b6831761ac840bf2b,5,2,5,L2,5th,Texas,Rangers,texas-rangers,1.5,18,32,2,3,0,2,0,0,0,0,1-4,2-5,AL,W,2.6,4.6,0.286,-14,-2,loss,2,7,20200802,texas-rangers_20200802
5f26e57b6831761ac840bf25,4,3,4,L2,4th,Toronto,Blue Jays,toronto-blue-jays,3,25,26,0,2,3,2,1,2,1,2,2-3,3-4,AL,E,3.6,3.7,0.429,-1,-0.1,loss,2,7,20200802,toronto-blue-jays_20200802
5f26e57b6831761ac840bf33,3,3,4,W2,3rd,Washington,Nationals,washington-nationals,2,24,22,1,4,2,0,0,0,0,0,2-3,3-4,NL,E,3.4,3.1,0.429,2,0.3,win,2,7,20200802,washington-nationals_20200802
5f283cda044e512f3010f91b,5,3,7,L2,5th,Arizona,Diamondbacks,arizona-diamondbacks,4,27,52,1,3,2,4,2,6,2,6,1-4,3-7,NL,W,2.7,5.2,0.3,-25,-2.5,loss,2,10,20200803,arizona-diamondbacks_20200803
5f283cda044e512f3010f912,1,7,3,W5,1st,Atlanta,Braves,atlanta-braves,0,57,40,5,0,2,3,5,1,5,1,5-0,7-3,NL,E,5.7,4,0.7,17,1.7,win,5,10,20200803,atlanta-braves_20200803
5f283cda044e512f3010f904,2,5,3,W3,2nd,Baltimore,Orioles,baltimore-orioles,2,41,44,3,2,2,1,5,3,5,3,3-2,5-3,AL,E,5.1,5.5,0.625,-3,-0.4,win,3,8,20200803,baltimore-orioles_20200803
5f283cda044e512f3010f907,5,3,7,L3,5th,Boston,Red Sox,boston-red-sox,5,46,57,1,4,2,3,1,5,1,5,2-3,3-7,AL,E,4.6,5.7,0.3,-11,-1.1,loss,3,10,20200803,boston-red-sox_20200803
5f283cda044e512f3010f90d,1,7,2,W3,1st,Chicago,Cubs,chicago-cubs,0,50,40,5,1,2,1,7,2,7,2,4-1,7-2,NL,C,5.6,4.4,0.778,10,1.1,win,3,9,20200803,chicago-cubs_20200803
5f283cda044e512f3010f8ff,2,5,4,W4,2nd,Chicago,White Sox,chicago-white-sox,2,50,45,1,2,4,2,5,4,5,4,4-1,5-4,AL,C,5.6,5,0.556,5,0.6,win,4,9,20200803,chicago-white-sox_20200803
5f283cda044e512f3010f90f,3,4,5,W2,3rd,Cincinnati,Reds,cincinnati-reds,3,47,43,2,4,2,1,1,2,1,2,3-2,4-5,NL,C,5.2,4.8,0.444,4,0.4,win,2,9,20200803,cincinnati-reds_20200803
5f283cda044e512f3010f901,3,5,5,L3,3rd,Cleveland,Indians,cleveland-indians,2.5,26,25,4,2,1,3,5,5,5,5,1-4,5-5,AL,C,2.6,2.5,0.5,1,0.1,loss,3,10,20200803,cleveland-indians_20200803
5f283cda044e512f3010f917,1,6,2,W2,1st,Colorado,Rockies,colorado-rockies,0,43,24,2,1,4,1,2,1,2,1,4-1,6-2,NL,W,5.4,3,0.75,19,2.4,win,2,8,20200803,colorado-rockies_20200803
5f283cda044e512f3010f900,3,5,5,L2,3rd,Detroit,Tigers,detroit-tigers,2.5,38,49,3,4,2,1,2,2,2,2,2-3,5-5,AL,C,3.8,4.9,0.5,-11,-1.1,loss,2,10,20200803,detroit-tigers_20200803
5f283cda044e512f3010f909,1,5,4,W1,1st,Houston,Astros,houston-astros,0,52,41,3,3,2,1,5,2,5,2,2-3,5-4,AL,W,5.8,4.6,0.556,11,1.2,win,1,9,20200803,houston-astros_20200803
5f283cda044e512f3010f902,5,3,7,L3,5th,Kansas City,Royals,kansas-city-royals,4.5,40,54,0,3,3,4,3,7,3,7,1-4,3-7,AL,C,4,5.4,0.3,-14,-1.4,loss,3,10,20200803,kansas-city-royals_20200803
5f283cda044e512f3010f90c,5,3,7,L1,5th,Los Angeles,Angels,los-angeles-angels,2.5,49,56,2,4,1,3,3,7,3,7,1-4,3-7,AL,W,4.9,5.6,0.3,-7,-0.7,loss,1,10,20200803,los-angeles-angels_20200803
5f283cda044e512f3010f918,2,7,3,W2,2nd,Los Angeles,Dodgers,los-angeles-dodgers,0,54,24,2,2,5,1,5,3,5,3,4-1,7-3,NL,W,5.4,2.4,0.7,30,3,win,2,10,20200803,los-angeles-dodgers_20200803
5f283cda044e512f3010f913,2,2,1,W1,2nd,Miami,Marlins,miami-marlins,1.5,17,15,0,0,2,1,2,1,2,1,2-1,2-1,NL,E,5.7,5,0.667,2,0.7,win,1,3,20200803,miami-marlins_20200803
5f283cda044e512f3010f90e,2,3,3,W1,2nd,Milwaukee,Brewers,milwaukee-brewers,2.5,24,28,0,0,3,3,3,3,3,3,3-2,3-3,NL,C,4,4.7,0.5,-4,-0.7,win,1,6,20200803,milwaukee-brewers_20200803
5f283cda044e512f3010f8fe,1,7,2,W3,1st,Minnesota,Twins,minnesota-twins,0,46,24,5,1,2,1,5,2,5,2,4-1,7-2,AL,C,5.1,2.7,0.778,22,2.4,win,3,9,20200803,minnesota-twins_20200803
5f283cda044e512f3010f916,5,3,7,L5,5th,New York,Mets,new-york-mets,4,38,58,1,4,2,3,1,5,1,5,0-5,3-7,NL,E,3.8,5.8,0.3,-20,-2,loss,5,10,20200803,new-york-mets_20200803
5f283cda044e512f3010f903,1,7,1,W6,1st,New York,Yankees,new-york-yankees,0,45,31,3,0,4,1,5,0,5,0,5-0,7-1,AL,E,5.6,3.9,0.875,14,1.8,win,6,8,20200803,new-york-yankees_20200803
5f283cda044e512f3010f908,1,5,4,W2,1st,Oakland,Athletics,oakland-athletics,0,30,33,3,3,2,1,5,2,5,2,2-3,5-4,AL,W,3.3,3.7,0.556,-3,-0.3,win,2,9,20200803,oakland-athletics_20200803
5f283cda044e512f3010f915,4,1,2,L1,4th,Philadelphia,Phillies,philadelphia-phillies,2.5,15,17,1,2,0,0,1,2,1,2,1-2,1-2,NL,E,5,5.7,0.333,-2,-0.7,loss,1,3,20200803,philadelphia-phillies_20200803
5f283cda044e512f3010f911,5,2,7,L4,5th,Pittsburgh,Pirates,pittsburgh-pirates,5,30,42,1,2,1,5,2,7,2,7,1-4,2-7,NL,C,3.3,4.7,0.222,-12,-1.3,loss,4,9,20200803,pittsburgh-pirates_20200803
5f283cda044e512f3010f919,3,6,4,L2,3rd,San Diego,Padres,san-diego-padres,1,59,48,3,1,3,3,6,4,6,4,2-3,6-4,NL,W,5.9,4.8,0.6,11,1.1,loss,2,10,20200803,san-diego-padres_20200803
5f283cda044e512f3010f91a,4,5,5,L1,4th,San Francisco,Giants,san-francisco-giants,2,48,59,3,3,2,2,3,4,3,4,3-2,5-5,NL,W,4.8,5.9,0.5,-11,-1.1,loss,1,10,20200803,san-francisco-giants_20200803
5f283cda044e512f3010f90a,3,4,6,L2,3rd,Seattle,Mariners,seattle-mariners,1.5,45,60,1,2,3,4,4,6,4,6,3-2,4-6,AL,W,4.5,6,0.4,-15,-1.5,loss,2,10,20200803,seattle-mariners_20200803
5f283cda044e512f3010f910,4,2,3,L3,4th,St. Louis,Cardinals,st-louis-cardinals,3,18,19,2,1,0,2,2,1,2,1,2-3,2-3,NL,C,3.6,3.8,0.4,-1,-0.2,loss,3,5,20200803,st-louis-cardinals_20200803
5f283cda044e512f3010f906,4,4,6,L5,4th,Tampa Bay,Rays,tampa-bay-rays,4,46,44,4,1,0,5,2,4,2,4,0-5,4-6,AL,E,4.6,4.4,0.4,2,0.2,loss,5,10,20200803,tampa-bay-rays_20200803
5f283cda044e512f3010f90b,4,3,5,W1,4th,Texas,Rangers,texas-rangers,1.5,27,37,2,3,1,2,0,0,0,0,2-3,3-5,AL,W,3.4,4.6,0.375,-10,-1.2,win,1,8,20200803,texas-rangers_20200803
5f283cda044e512f3010f905,3,3,4,L2,3rd,Toronto,Blue Jays,toronto-blue-jays,3.5,25,26,0,2,3,2,1,2,1,2,2-3,3-4,AL,E,3.6,3.7,0.429,-1,-0.1,loss,2,7,20200803,toronto-blue-jays_20200803
5f283cda044e512f3010f914,3,3,4,W2,3rd,Washington,Nationals,washington-nationals,2.5,24,22,1,4,2,0,0,0,0,0,2-3,3-4,NL,E,3.4,3.1,0.429,2,0.3,win,2,7,20200803,washington-nationals_20200803
5f29aacde1b70347c4ac02bb,5,3,7,L2,5th,Arizona,Diamondbacks,arizona-diamondbacks,4.5,27,52,1,3,2,4,2,6,2,6,1-4,3-7,NL,W,2.7,5.2,0.3,-25,-2.5,loss,2,10,20200804,arizona-diamondbacks_20200804
5f29aacde1b70347c4ac02b2,2,7,4,L1,2nd,Atlanta,Braves,atlanta-braves,-1,59,47,5,1,2,3,5,2,5,2,4-1,7-3,NL,E,5.4,4.3,0.636,12,1.1,loss,1,11,20200804,atlanta-braves_20200804
5f29aacde1b70347c4ac02a4,2,5,3,W3,2nd,Baltimore,Orioles,baltimore-orioles,2.5,41,44,3,2,2,1,5,3,5,3,3-2,5-3,AL,E,5.1,5.5,0.625,-3,-0.4,win,3,8,20200804,baltimore-orioles_20200804
5f29aacde1b70347c4ac02a7,5,3,7,L3,5th,Boston,Red Sox,boston-red-sox,5.5,46,57,1,4,2,3,1,5,1,5,2-3,3-7,AL,E,4.6,5.7,0.3,-11,-1.1,loss,3,10,20200804,boston-red-sox_20200804
5f29aacde1b70347c4ac02ad,1,8,2,W4,1st,Chicago,Cubs,chicago-cubs,0,52,40,6,1,2,1,7,2,7,2,4-1,8-2,NL,C,5.2,4,0.8,12,1.2,win,4,10,20200804,chicago-cubs_20200804
5f29aacde1b70347c4ac029f,2,6,4,W5,2nd,Chicago,White Sox,chicago-white-sox,2,56,49,1,2,5,2,5,4,5,4,5-0,6-4,AL,C,5.6,4.9,0.6,7,0.7,win,5,10,20200804,chicago-white-sox_20200804
5f29aacde1b70347c4ac02ae,2,5,5,W3,2nd,Cincinnati,Reds,cincinnati-reds,3,50,45,3,4,2,1,1,2,1,2,4-1,5-5,NL,C,5,4.5,0.5,5,0.5,win,3,10,20200804,cincinnati-reds_20200804
5f29aacde1b70347c4ac02a1,4,5,6,L4,4th,Cleveland,Indians,cleveland-indians,3.5,28,28,4,2,1,4,5,5,5,5,1-4,4-6,AL,C,2.5,2.5,0.455,0,0,loss,4,11,20200804,cleveland-indians_20200804
5f29aacde1b70347c4ac02b7,1,7,2,W3,1st,Colorado,Rockies,colorado-rockies,0,50,30,3,1,4,1,3,1,3,1,4-1,7-2,NL,W,5.6,3.3,0.778,20,2.2,win,3,9,20200804,colorado-rockies_20200804
5f29aacde1b70347c4ac02a0,3,5,5,L2,3rd,Detroit,Tigers,detroit-tigers,3,38,49,3,4,2,1,2,2,2,2,2-3,5-5,AL,C,3.8,4.9,0.5,-11,-1.1,loss,2,10,20200804,detroit-tigers_20200804
5f29aacde1b70347c4ac02a9,2,5,4,W1,2nd,Houston,Astros,houston-astros,0.5,52,41,3,3,2,1,5,2,5,2,2-3,5-4,AL,W,5.8,4.6,0.556,11,1.2,win,1,9,20200804,houston-astros_20200804
5f29aacde1b70347c4ac02a2,5,3,8,L4,5th,Kansas City,Royals,kansas-city-royals,5.5,40,56,0,3,3,5,3,7,3,7,1-4,3-7,AL,C,3.6,5.1,0.273,-16,-1.5,loss,4,11,20200804,kansas-city-royals_20200804
5f29aacde1b70347c4ac02ac,5,3,7,L1,5th,Los Angeles,Angels,los-angeles-angels,3,49,56,2,4,1,3,3,7,3,7,1-4,3-7,AL,W,4.9,5.6,0.3,-7,-0.7,loss,1,10,20200804,los-angeles-angels_20200804
5f29aacde1b70347c4ac02b9,2,7,4,L1,2nd,Los Angeles,Dodgers,los-angeles-dodgers,1,58,29,2,2,5,2,5,4,5,4,3-2,6-4,NL,W,5.3,2.6,0.636,29,2.6,loss,1,11,20200804,los-angeles-dodgers_20200804
5f29aacde1b70347c4ac02b3,1,2,1,W1,1st,Miami,Marlins,miami-marlins,0,17,15,0,0,2,1,2,1,2,1,2-1,2-1,NL,E,5.7,5,0.667,2,0.7,win,1,3,20200804,miami-marlins_20200804
5f29aacde1b70347c4ac02af,3,3,4,L1,3rd,Milwaukee,Brewers,milwaukee-brewers,3.5,28,34,0,1,3,3,3,3,3,3,2-3,3-4,NL,C,4,4.9,0.429,-6,-0.9,loss,1,7,20200804,milwaukee-brewers_20200804
5f29aacde1b70347c4ac029e,1,8,2,W4,1st,Minnesota,Twins,minnesota-twins,0,51,28,6,1,2,1,5,2,5,2,4-1,8-2,AL,C,5.1,2.8,0.8,23,2.3,win,4,10,20200804,minnesota-twins_20200804
5f29aacde1b70347c4ac02b6,4,4,7,W1,4th,New York,Mets,new-york-mets,2,45,60,1,4,3,3,2,5,2,5,1-4,3-7,NL,E,4.1,5.5,0.364,-15,-1.4,win,1,11,20200804,new-york-mets_20200804
5f29aacde1b70347c4ac02a3,1,8,1,W7,1st,New York,Yankees,new-york-yankees,0,51,34,4,0,4,1,5,0,5,0,5-0,8-1,AL,E,5.7,3.8,0.889,17,1.9,win,7,9,20200804,new-york-yankees_20200804
5f29aacde1b70347c4ac02a8,1,6,4,W3,1st,Oakland,Athletics,oakland-athletics,0,41,34,3,3,3,1,6,2,6,2,3-2,6-4,AL,W,4.1,3.4,0.6,7,0.7,win,3,10,20200804,oakland-athletics_20200804
5f29aacde1b70347c4ac02b5,5,1,3,L2,5th,Philadelphia,Phillies,philadelphia-phillies,1.5,18,23,1,2,0,1,1,2,1,2,1-3,1-3,NL,E,4.5,5.8,0.25,-5,-1.2,loss,2,4,20200804,philadelphia-phillies_20200804
5f29aacde1b70347c4ac02b1,5,2,8,L5,5th,Pittsburgh,Pirates,pittsburgh-pirates,6,34,47,1,2,1,6,2,7,2,7,0-5,2-8,NL,C,3.4,4.7,0.2,-13,-1.3,loss,5,10,20200804,pittsburgh-pirates_20200804
5f29aacde1b70347c4ac02b8,2,7,4,W1,2nd,San Diego,Padres,san-diego-padres,1,64,52,4,1,3,3,7,4,7,4,3-2,6-4,NL,W,5.8,4.7,0.636,12,1.1,win,1,11,20200804,san-diego-padres_20200804
5f29aacde1b70347c4ac02ba,4,5,6,L2,4th,San Francisco,Giants,san-francisco-giants,3,54,66,3,3,2,3,3,5,3,5,2-3,5-5,NL,W,4.9,6,0.455,-12,-1.1,loss,2,11,20200804,san-francisco-giants_20200804
5f29aacde1b70347c4ac02ab,4,4,7,L3,4th,Seattle,Mariners,seattle-mariners,2.5,46,71,1,3,3,4,4,7,4,7,2-3,4-6,AL,W,4.2,6.5,0.364,-25,-2.3,loss,3,11,20200804,seattle-mariners_20200804
5f29aacde1b70347c4ac02b0,4,2,3,L3,4th,St. Louis,Cardinals,st-louis-cardinals,3.5,18,19,2,1,0,2,2,1,2,1,2-3,2-3,NL,C,3.6,3.8,0.4,-1,-0.2,loss,3,5,20200804,st-louis-cardinals_20200804
5f29aacde1b70347c4ac02a6,4,4,6,L5,4th,Tampa Bay,Rays,tampa-bay-rays,4.5,46,44,4,1,0,5,2,4,2,4,0-5,4-6,AL,E,4.6,4.4,0.4,2,0.2,loss,5,10,20200804,tampa-bay-rays_20200804
5f29aacde1b70347c4ac02aa,3,3,5,W1,3rd,Texas,Rangers,texas-rangers,2,27,37,2,3,1,2,0,0,0,0,2-3,3-5,AL,W,3.4,4.6,0.375,-10,-1.2,win,1,8,20200804,texas-rangers_20200804
5f29aacde1b70347c4ac02a5,3,3,4,L2,3rd,Toronto,Blue Jays,toronto-blue-jays,4,25,26,0,2,3,2,1,2,1,2,2-3,3-4,AL,E,3.6,3.7,0.429,-1,-0.1,loss,2,7,20200804,toronto-blue-jays_20200804
5f29aacde1b70347c4ac02b4,3,3,4,W2,3rd,Washington,Nationals,washington-nationals,1,24,22,1,4,2,0,0,0,0,0,2-3,3-4,NL,E,3.4,3.1,0.429,2,0.3,win,2,7,20200804,washington-nationals_20200804
5f2aa7d9c930ed2300778798,5,3,8,L3,5th,Arizona,Diamondbacks,arizona-diamondbacks,5.5,29,60,1,4,2,4,2,6,2,6,1-4,3-7,NL,W,2.6,5.5,0.273,-31,-2.8,loss,3,11,20200805,arizona-diamondbacks_20200805
5f2aa7d9c930ed230077878f,2,8,4,W1,2nd,Atlanta,Braves,atlanta-braves,-1,69,48,6,1,2,3,5,2,5,2,4-1,7-3,NL,E,5.8,4,0.667,21,1.8,win,1,12,20200805,atlanta-braves_20200805
5f2aa7d9c930ed2300778781,2,5,4,L1,2nd,Baltimore,Orioles,baltimore-orioles,3,41,48,3,3,2,1,5,3,5,3,3-2,5-4,AL,E,4.6,5.3,0.556,-7,-0.8,loss,1,9,20200805,baltimore-orioles_20200805
5f2aa7d9c930ed2300778784,5,3,8,L4,5th,Boston,Red Sox,boston-red-sox,6,47,62,1,4,2,4,1,6,1,6,1-4,2-8,AL,E,4.3,5.6,0.273,-15,-1.4,loss,4,11,20200805,boston-red-sox_20200805
5f2aa7d9c930ed230077878a,1,9,2,W5,1st,Chicago,Cubs,chicago-cubs,0,57,44,7,1,2,1,7,2,7,2,5-0,8-2,NL,C,5.2,4,0.818,13,1.2,win,5,11,20200805,chicago-cubs_20200805
5f2aa7d9c930ed230077877c,2,7,4,W6,2nd,Chicago,White Sox,chicago-white-sox,2,59,51,1,2,6,2,5,4,5,4,5-0,7-3,AL,C,5.4,4.6,0.636,8,0.7,win,6,11,20200805,chicago-white-sox_20200805
5f2aa7d9c930ed230077878b,2,5,6,L1,2nd,Cincinnati,Reds,cincinnati-reds,4,52,49,3,5,2,1,1,2,1,2,3-2,4-6,NL,C,4.7,4.5,0.455,3,0.3,loss,1,11,20200805,cincinnati-reds_20200805
5f2aa7d9c930ed230077877d,3,6,6,W1,3rd,Cleveland,Indians,cleveland-indians,3.5,32,30,4,2,2,4,5,5,5,5,1-4,5-5,AL,C,2.7,2.5,0.5,2,0.2,win,1,12,20200805,cleveland-indians_20200805
5f2aa7d9c930ed2300778794,1,8,2,W4,1st,Colorado,Rockies,colorado-rockies,0,55,32,4,1,4,1,4,1,4,1,4-1,8-2,NL,W,5.5,3.2,0.8,23,2.3,win,4,10,20200805,colorado-rockies_20200805
5f2aa7d9c930ed230077877e,3,5,5,L2,3rd,Detroit,Tigers,detroit-tigers,3.5,38,49,3,4,2,1,2,2,2,2,2-3,5-5,AL,C,3.8,4.9,0.5,-11,-1.1,loss,2,10,20200805,detroit-tigers_20200805
5f2aa7d9c930ed2300778786,2,6,4,W2,2nd,Houston,Astros,houston-astros,0.5,60,43,3,3,3,1,5,2,5,2,3-2,6-4,AL,W,6,4.3,0.6,17,1.7,win,2,10,20200805,houston-astros_20200805
5f2aa7d9c930ed230077877f,5,3,9,L5,5th,Kansas City,Royals,kansas-city-royals,6.5,44,61,0,3,3,6,3,7,3,7,0-5,2-8,AL,C,3.7,5.1,0.25,-17,-1.4,loss,5,12,20200805,kansas-city-royals_20200805
5f2aa7d9c930ed2300778787,3,4,7,W1,3rd,Los Angeles,Angels,los-angeles-angels,3,54,59,2,4,2,3,4,7,4,7,2-3,4-6,AL,W,4.9,5.4,0.364,-5,-0.5,win,1,11,20200805,los-angeles-angels_20200805
5f2aa7d9c930ed2300778795,2,8,4,W1,2nd,Los Angeles,Dodgers,los-angeles-dodgers,1,63,31,2,2,6,2,6,4,6,4,3-2,6-4,NL,W,5.2,2.6,0.667,32,2.7,win,1,12,20200805,los-angeles-dodgers_20200805
5f2aa7d9c930ed2300778790,1,3,1,W2,1st,Miami,Marlins,miami-marlins,0,21,15,0,0,3,1,2,1,2,1,3-1,3-1,NL,E,5.2,3.8,0.75,6,1.5,win,2,4,20200805,miami-marlins_20200805
5f2aa7d9c930ed230077878d,4,3,5,L2,4th,Milwaukee,Brewers,milwaukee-brewers,4.5,30,37,0,2,3,3,3,3,3,3,2-3,3-5,NL,C,3.8,4.6,0.375,-7,-0.9,loss,2,8,20200805,milwaukee-brewers_20200805
5f2aa7d9c930ed230077877b,1,9,2,W5,1st,Minnesota,Twins,minnesota-twins,0,58,31,7,1,2,1,5,2,5,2,5-0,8-2,AL,C,5.3,2.8,0.818,27,2.5,win,5,11,20200805,minnesota-twins_20200805
5f2aa7d9c930ed2300778793,4,4,8,L1,4th,New York,Mets,new-york-mets,3,48,65,1,4,3,4,2,6,2,6,1-4,3-7,NL,E,4,5.4,0.333,-17,-1.4,loss,1,12,20200805,new-york-mets_20200805
5f2aa7d9c930ed2300778780,1,8,1,W7,1st,New York,Yankees,new-york-yankees,0,51,34,4,0,4,1,5,0,5,0,5-0,8-1,AL,E,5.7,3.8,0.889,17,1.9,win,7,9,20200805,new-york-yankees_20200805
5f2aa7d9c930ed2300778785,1,7,4,W4,1st,Oakland,Athletics,oakland-athletics,0,46,35,4,3,3,1,7,2,7,2,4-1,6-4,AL,W,4.2,3.2,0.636,11,1,win,4,11,20200805,oakland-athletics_20200805
5f2aa7d9c930ed2300778792,5,1,3,L2,5th,Philadelphia,Phillies,philadelphia-phillies,2,18,23,1,2,0,1,1,2,1,2,1-3,1-3,NL,E,4.5,5.8,0.25,-5,-1.2,loss,2,4,20200805,philadelphia-phillies_20200805
5f2aa7d9c930ed230077878e,5,2,9,L6,5th,Pittsburgh,Pirates,pittsburgh-pirates,7,37,54,1,2,1,7,2,7,2,7,0-5,2-8,NL,C,3.4,4.9,0.182,-17,-1.5,loss,6,11,20200805,pittsburgh-pirates_20200805
5f2aa7d9c930ed2300778796,3,7,5,L1,3rd,San Diego,Padres,san-diego-padres,2,66,57,4,2,3,3,7,5,7,5,2-3,5-5,NL,W,5.5,4.8,0.583,9,0.8,loss,1,12,20200805,san-diego-padres_20200805
5f2aa7d9c930ed2300778797,4,5,7,L3,4th,San Francisco,Giants,san-francisco-giants,4,56,71,3,3,2,4,3,6,3,6,2-3,5-5,NL,W,4.7,5.9,0.417,-15,-1.2,loss,3,12,20200805,san-francisco-giants_20200805
5f2aa7d9c930ed2300778789,4,4,8,L4,4th,Seattle,Mariners,seattle-mariners,3.5,49,76,1,4,3,4,4,8,4,8,1-4,4-6,AL,W,4.1,6.3,0.333,-27,-2.2,loss,4,12,20200805,seattle-mariners_20200805
5f2aa7d9c930ed230077878c,3,2,3,L3,3rd,St. Louis,Cardinals,st-louis-cardinals,4,18,19,2,1,0,2,2,1,2,1,2-3,2-3,NL,C,3.6,3.8,0.4,-1,-0.2,loss,3,5,20200805,st-louis-cardinals_20200805
5f2aa7d9c930ed2300778782,3,5,6,W1,3rd,Tampa Bay,Rays,tampa-bay-rays,4,51,45,5,1,0,5,3,4,3,4,1-4,5-5,AL,E,4.6,4.1,0.455,6,0.5,win,1,11,20200805,tampa-bay-rays_20200805
5f2aa7d9c930ed2300778788,4,3,6,L1,4th,Texas,Rangers,texas-rangers,3,28,42,2,3,1,3,0,1,0,1,2-3,3-6,AL,W,3.1,4.7,0.333,-14,-1.6,loss,1,9,20200805,texas-rangers_20200805
5f2aa7d9c930ed2300778783,4,3,5,L3,4th,Toronto,Blue Jays,toronto-blue-jays,4.5,26,36,0,2,3,3,1,2,1,2,2-3,3-5,AL,E,3.2,4.5,0.375,-10,-1.2,loss,3,8,20200805,toronto-blue-jays_20200805
5f2aa7d9c930ed2300778791,3,4,4,W3,3rd,Washington,Nationals,washington-nationals,1,29,25,2,4,2,0,1,0,1,0,3-2,4-4,NL,E,3.6,3.1,0.5,4,0.5,win,3,8,20200805,washington-nationals_20200805
5f2c0b9305a45757f8bf14d2,5,4,8,W1,5th,Arizona,Diamondbacks,arizona-diamondbacks,4.5,43,67,2,4,2,4,2,6,2,6,2-3,4-6,NL,W,3.6,5.6,0.333,-24,-2,win,1,12,20200806,arizona-diamondbacks_20200806
5f2c0b9305a45757f8bf14ca,2,8,5,L1,2nd,Atlanta,Braves,atlanta-braves,0.5,70,50,6,2,2,3,5,2,5,2,3-2,6-4,NL,E,5.4,3.8,0.615,20,1.5,loss,1,13,20200806,atlanta-braves_20200806
5f2c0b9305a45757f8bf14bb,2,5,6,L3,2nd,Baltimore,Orioles,baltimore-orioles,4,42,51,3,4,2,2,5,3,5,3,2-3,5-5,AL,E,3.8,4.6,0.455,-9,-0.8,loss,3,11,20200806,baltimore-orioles_20200806
5f2c0b9305a45757f8bf14be,5,4,8,W1,5th,Boston,Red Sox,boston-red-sox,5.5,52,62,1,4,3,4,2,6,2,6,1-4,3-7,AL,E,4.3,5.2,0.333,-10,-0.8,win,1,12,20200806,boston-red-sox_20200806
5f2c0b9305a45757f8bf14c4,1,10,2,W6,1st,Chicago,Cubs,chicago-cubs,0,63,45,7,1,3,1,7,2,7,2,5-0,9-1,NL,C,5.2,3.8,0.833,18,1.5,win,6,12,20200806,chicago-cubs_20200806
5f2c0b9305a45757f8bf14b6,2,7,5,L1,2nd,Chicago,White Sox,chicago-white-sox,3,59,52,1,3,6,2,5,4,5,4,4-1,6-4,AL,C,4.9,4.3,0.583,7,0.6,loss,1,12,20200806,chicago-white-sox_20200806
5f2c0b9305a45757f8bf14c7,3,5,7,L2,3rd,Cincinnati,Reds,cincinnati-reds,5,52,51,3,5,2,2,1,2,1,2,3-2,4-6,NL,C,4.3,4.2,0.417,1,0.1,loss,2,12,20200806,cincinnati-reds_20200806
5f2c0b9305a45757f8bf14b7,3,7,6,W2,3rd,Cleveland,Indians,cleveland-indians,3.5,34,30,5,2,2,4,5,5,5,5,2-3,5-5,AL,C,2.6,2.3,0.538,4,0.3,win,2,13,20200806,cleveland-indians_20200806
5f2c0b9305a45757f8bf14ce,1,8,3,L1,1st,Colorado,Rockies,colorado-rockies,0,58,36,4,2,4,1,4,2,4,2,4-1,8-2,NL,W,5.3,3.3,0.727,22,2,loss,1,11,20200806,colorado-rockies_20200806
5f2c0b9305a45757f8bf14b8,4,5,5,L2,4th,Detroit,Tigers,detroit-tigers,4,38,49,3,4,2,1,2,2,2,2,2-3,5-5,AL,C,3.8,4.9,0.5,-11,-1.1,loss,2,10,20200806,detroit-tigers_20200806
5f2c0b9305a45757f8bf14c0,2,6,5,L1,2nd,Houston,Astros,houston-astros,1.5,67,57,3,3,3,2,5,2,5,2,3-2,5-5,AL,W,6.1,5.2,0.545,10,0.9,loss,1,11,20200806,houston-astros_20200806
5f2c0b9305a45757f8bf14b9,5,3,10,L6,5th,Kansas City,Royals,kansas-city-royals,7.5,45,67,0,4,3,6,3,7,3,7,0-5,2-8,AL,C,3.5,5.2,0.231,-22,-1.7,loss,6,13,20200806,kansas-city-royals_20200806
5f2c0b9305a45757f8bf14c2,4,4,8,L1,4th,Los Angeles,Angels,los-angeles-angels,4,60,66,2,4,2,4,4,8,4,8,2-3,3-7,AL,W,5,5.5,0.333,-6,-0.5,loss,1,12,20200806,los-angeles-angels_20200806
5f2c0b9305a45757f8bf14cf,2,9,4,W2,2nd,Los Angeles,Dodgers,los-angeles-dodgers,0,70,37,2,2,7,2,7,4,7,4,4-1,7-3,NL,W,5.4,2.8,0.692,33,2.5,win,2,13,20200806,los-angeles-dodgers_20200806
5f2c0b9305a45757f8bf14c9,1,5,1,W4,1st,Miami,Marlins,miami-marlins,0,24,16,1,0,4,1,2,1,2,1,4-1,5-1,NL,E,4,2.7,0.833,8,1.3,win,4,6,20200806,miami-marlins_20200806
5f2c0b9305a45757f8bf14c5,2,4,5,W1,2nd,Milwaukee,Brewers,milwaukee-brewers,4.5,31,37,0,2,4,3,3,3,3,3,2-3,4-5,NL,C,3.4,4.1,0.444,-6,-0.7,win,1,9,20200806,milwaukee-brewers_20200806
5f2c0b9305a45757f8bf14b5,1,10,2,W6,1st,Minnesota,Twins,minnesota-twins,0,63,33,7,1,3,1,5,2,5,2,5-0,9-1,AL,C,5.2,2.8,0.833,30,2.5,win,6,12,20200806,minnesota-twins_20200806
5f2c0b9305a45757f8bf14cd,4,5,8,W1,4th,New York,Mets,new-york-mets,3.5,51,66,1,4,4,4,3,6,3,6,2-3,4-6,NL,E,3.9,5.1,0.385,-15,-1.2,win,1,13,20200806,new-york-mets_20200806
5f2c0b9305a45757f8bf14ba,1,9,2,W1,1st,New York,Yankees,new-york-yankees,0,61,46,4,1,5,1,5,0,5,0,4-1,8-2,AL,E,5.5,4.2,0.818,15,1.4,win,1,11,20200806,new-york-yankees_20200806
5f2c0b9305a45757f8bf14bf,1,8,4,W5,1st,Oakland,Athletics,oakland-athletics,0,52,39,5,3,3,1,8,2,8,2,5-0,7-3,AL,W,4.3,3.2,0.667,13,1.1,win,5,12,20200806,oakland-athletics_20200806
5f2c0b9305a45757f8bf14cc,5,2,4,L1,5th,Philadelphia,Phillies,philadelphia-phillies,3,30,33,1,3,1,1,1,2,1,2,2-3,2-4,NL,E,5,5.5,0.333,-3,-0.5,loss,1,6,20200806,philadelphia-phillies_20200806
5f2c0b9305a45757f8bf14c8,5,2,10,L7,5th,Pittsburgh,Pirates,pittsburgh-pirates,8,39,59,1,3,1,7,2,7,2,7,0-5,2-8,NL,C,3.2,4.9,0.167,-20,-1.7,loss,7,12,20200806,pittsburgh-pirates_20200806
5f2c0b9305a45757f8bf14d0,3,7,6,L2,3rd,San Diego,Padres,san-diego-padres,2,72,64,4,3,3,3,7,6,7,6,1-4,5-5,NL,W,5.5,4.9,0.538,8,0.6,loss,2,13,20200806,san-diego-padres_20200806
5f2c0b9305a45757f8bf14d1,4,6,7,W1,4th,San Francisco,Giants,san-francisco-giants,3,60,74,3,3,3,4,4,6,4,6,2-3,5-5,NL,W,4.6,5.7,0.462,-14,-1.1,win,1,13,20200806,san-francisco-giants_20200806
5f2c0b9305a45757f8bf14c1,3,5,8,W1,3rd,Seattle,Mariners,seattle-mariners,3.5,56,82,2,4,3,4,5,8,5,8,1-4,4-6,AL,W,4.3,6.3,0.385,-26,-2,win,1,13,20200806,seattle-mariners_20200806
5f2c0b9305a45757f8bf14c6,4,2,3,L3,4th,St. Louis,Cardinals,st-louis-cardinals,4.5,18,19,2,1,0,2,2,1,2,1,2-3,2-3,NL,C,3.6,3.8,0.4,-1,-0.2,loss,3,5,20200806,st-louis-cardinals_20200806
5f2c0b9305a45757f8bf14bd,4,5,7,L1,4th,Tampa Bay,Rays,tampa-bay-rays,4.5,51,50,5,2,0,5,3,5,3,5,1-4,4-6,AL,E,4.2,4.2,0.417,1,0.1,loss,1,12,20200806,tampa-bay-rays_20200806
5f2c0b9305a45757f8bf14c3,5,3,7,L2,5th,Texas,Rangers,texas-rangers,4,32,48,2,3,1,4,0,2,0,2,1-4,3-7,AL,W,3.2,4.8,0.3,-16,-1.6,loss,2,10,20200806,texas-rangers_20200806
5f2c0b9305a45757f8bf14bc,3,4,5,W1,3rd,Toronto,Blue Jays,toronto-blue-jays,4,28,37,0,2,4,3,1,2,1,2,2-3,4-5,AL,E,3.1,4.1,0.444,-9,-1,win,1,9,20200806,toronto-blue-jays_20200806
5f2c0b9305a45757f8bf14cb,3,4,5,L1,3rd,Washington,Nationals,washington-nationals,2.5,30,28,2,5,2,0,1,1,1,1,3-2,4-5,NL,E,3.3,3.1,0.444,2,0.2,loss,1,9,20200806,washington-nationals_20200806
5f308cd4414275380cb5eabd,5,6,9,W1,5th,Arizona,Diamondbacks,arizona-diamondbacks,5,51,76,3,4,3,5,3,7,3,7,3-2,4-6,NL,W,3.4,5.1,0.4,-25,-1.7,win,1,15,20200809,arizona-diamondbacks_20200809
5f308cd4414275380cb5eab5,2,10,6,W1,2nd,Atlanta,Braves,atlanta-braves,0,79,60,7,2,3,4,6,3,6,3,3-2,7-3,NL,E,4.9,3.8,0.625,19,1.2,win,1,16,20200809,atlanta-braves_20200809
5f308cd4414275380cb5eaa7,2,7,7,W2,2nd,Baltimore,Orioles,baltimore-orioles,2,65,62,3,4,4,3,5,3,5,3,2-3,5-5,AL,E,4.6,4.4,0.5,3,0.2,win,2,14,20200809,baltimore-orioles_20200809
5f308cd4414275380cb5eaa8,4,6,9,W1,4th,Boston,Red Sox,boston-red-sox,3.5,63,70,3,5,3,4,4,7,4,7,3-2,5-5,AL,E,4.2,4.7,0.4,-7,-0.5,win,1,15,20200809,boston-red-sox_20200809
5f308cd4414275380cb5eaaf,1,10,3,L1,1st,Chicago,Cubs,chicago-cubs,0,65,58,7,1,3,2,7,2,7,2,4-1,8-2,NL,C,5,4.5,0.769,7,0.5,loss,1,13,20200809,chicago-cubs_20200809
5f308cd4414275380cb5eaa3,4,8,7,L1,4th,Chicago,White Sox,chicago-white-sox,1.5,65,67,2,5,6,2,6,5,6,5,2-3,7-3,AL,C,4.3,4.5,0.533,-2,-0.1,loss,1,15,20200809,chicago-white-sox_20200809
5f308cd4414275380cb5eab2,3,7,9,L1,3rd,Cincinnati,Reds,cincinnati-reds,4.5,67,77,3,5,4,4,3,3,3,3,2-3,5-5,NL,C,4.2,4.8,0.438,-10,-0.6,loss,1,16,20200809,cincinnati-reds_20200809
5f308cd4414275380cb5eaa2,3,9,7,W1,3rd,Cleveland,Indians,cleveland-indians,1,54,33,6,2,3,5,6,6,6,6,4-1,5-5,AL,C,3.4,2.1,0.562,21,1.3,win,1,16,20200809,cleveland-indians_20200809
5f308cd4414275380cb5eab9,1,11,4,L1,1st,Colorado,Rockies,colorado-rockies,0,80,49,5,2,6,2,5,2,5,2,3-2,7-3,NL,W,5.3,3.3,0.733,31,2.1,loss,1,15,20200809,colorado-rockies_20200809
5f308cd4414275380cb5eaa1,2,8,5,W3,2nd,Detroit,Tigers,detroit-tigers,0.5,68,68,3,4,5,1,2,2,2,2,3-2,6-4,AL,C,5.2,5.2,0.615,0,0,win,3,13,20200809,detroit-tigers_20200809
5f308cd4414275380cb5eaac,2,6,8,L4,2nd,Houston,Astros,houston-astros,4.5,74,68,3,3,3,5,5,4,5,4,1-4,3-7,AL,W,5.3,4.9,0.429,6,0.4,loss,4,14,20200809,houston-astros_20200809
5f308cd4414275380cb5eaa4,5,7,10,W4,5th,Kansas City,Royals,kansas-city-royals,3.5,74,79,4,4,3,6,6,7,6,7,4-1,4-6,AL,C,4.4,4.6,0.412,-5,-0.3,win,4,17,20200809,kansas-city-royals_20200809
5f308cd4414275380cb5eaae,5,5,11,L3,5th,Los Angeles,Angels,los-angeles-angels,6.5,72,80,2,4,3,7,5,11,5,11,1-4,3-7,AL,W,4.5,5,0.312,-8,-0.5,loss,3,16,20200809,los-angeles-angels_20200809
5f308cd4414275380cb5eaba,2,11,5,W1,2nd,Los Angeles,Dodgers,los-angeles-dodgers,0.5,87,46,4,3,7,2,9,5,9,5,4-1,7-3,NL,W,5.4,2.9,0.688,41,2.6,win,1,16,20200809,los-angeles-dodgers_20200809
5f308cd4414275380cb5eab4,1,7,3,L2,1st,Miami,Marlins,miami-marlins,0,42,38,2,0,5,3,3,3,3,3,3-2,7-3,NL,E,4.2,3.8,0.7,4,0.4,loss,2,10,20200809,miami-marlins_20200809
5f308cd4414275380cb5eab0,2,6,7,W1,2nd,Milwaukee,Brewers,milwaukee-brewers,4,52,55,1,4,5,3,4,5,4,5,3-2,5-5,NL,C,4,4.2,0.462,-3,-0.2,win,1,13,20200809,milwaukee-brewers_20200809
5f308cd4414275380cb5eaa0,1,10,6,L4,1st,Minnesota,Twins,minnesota-twins,0,78,55,7,1,3,5,5,5,5,5,1-4,6-4,AL,C,4.9,3.4,0.625,23,1.4,loss,4,16,20200809,minnesota-twins_20200809
5f308cd4414275380cb5eab7,4,7,9,W2,4th,New York,Mets,new-york-mets,3,66,76,3,5,4,4,5,7,5,7,3-2,4-6,NL,E,4.1,4.8,0.438,-10,-0.6,win,2,16,20200809,new-york-mets_20200809
5f308cd4414275380cb5eaa5,1,10,6,L2,1st,New York,Yankees,new-york-yankees,0,79,65,4,1,6,5,6,3,6,3,1-4,5-5,AL,E,4.9,4.1,0.625,14,0.9,loss,2,16,20200809,new-york-yankees_20200809
5f308cd4414275380cb5eaaa,1,11,4,W8,1st,Oakland,Athletics,oakland-athletics,0,64,46,8,3,3,1,11,2,11,2,5-0,8-2,AL,W,4.3,3.1,0.733,18,1.2,win,8,15,20200809,oakland-athletics_20200809
5f308cd4414275380cb5eab6,3,4,5,L1,3rd,Philadelphia,Phillies,philadelphia-phillies,2.5,42,42,3,4,1,1,2,3,2,3,3-2,4-5,NL,E,4.7,4.7,0.444,0,0,loss,1,9,20200809,philadelphia-phillies_20200809
5f308cd4414275380cb5eab3,5,3,13,L3,5th,Pittsburgh,Pirates,pittsburgh-pirates,8.5,64,94,2,6,1,7,2,7,2,7,1-4,1-9,NL,C,4,5.9,0.188,-30,-1.9,loss,3,16,20200809,pittsburgh-pirates_20200809
5f308cd4414275380cb5eabb,3,8,7,L1,3rd,San Diego,Padres,san-diego-padres,3,77,67,5,4,3,3,8,7,8,7,2-3,4-6,NL,W,5.1,4.5,0.533,10,0.7,loss,1,15,20200809,san-diego-padres_20200809
5f308cd4414275380cb5eabc,4,7,10,L1,4th,San Francisco,Giants,san-francisco-giants,5,73,97,3,3,4,7,5,9,5,9,2-3,4-6,NL,W,4.3,5.7,0.412,-24,-1.4,loss,1,17,20200809,san-francisco-giants_20200809
5f308cd4414275380cb5eaad,4,6,11,W1,4th,Seattle,Mariners,seattle-mariners,6,66,104,3,7,3,4,5,9,5,9,2-3,3-7,AL,W,3.9,6.1,0.353,-38,-2.2,win,1,17,20200809,seattle-mariners_20200809
5f308cd4414275380cb5eab1,4,2,3,L3,4th,St. Louis,Cardinals,st-louis-cardinals,4,18,19,2,1,0,2,2,1,2,1,2-3,2-3,NL,C,3.6,3.8,0.4,-1,-0.2,loss,3,5,20200809,st-louis-cardinals_20200809
5f308cd4414275380cb5eaa6,2,8,8,W2,2nd,Tampa Bay,Rays,tampa-bay-rays,2,65,64,8,3,0,5,6,6,6,6,3-2,4-6,AL,E,4.1,4,0.5,1,0.1,win,2,16,20200809,tampa-bay-rays_20200809
5f308cd4414275380cb5eaab,2,6,8,W3,2nd,Texas,Rangers,texas-rangers,4.5,49,60,5,3,1,5,3,3,3,3,3-2,5-5,AL,W,3.5,4.3,0.429,-11,-0.8,win,3,14,20200809,texas-rangers_20200809
5f308cd4414275380cb5eaa9,5,5,8,L1,5th,Toronto,Blue Jays,toronto-blue-jays,3.5,39,52,0,2,5,6,2,4,2,4,2-3,4-6,AL,E,3,4,0.385,-13,-1,loss,1,13,20200809,toronto-blue-jays_20200809
5f308cd4414275380cb5eab8,5,4,7,L3,5th,Washington,Nationals,washington-nationals,3.5,33,44,2,7,2,0,1,1,1,1,2-3,4-6,NL,E,3,4,0.364,-11,-1,loss,3,11,20200809,washington-nationals_20200809